<?xml version="1.0" standalone="no"?>
<!DOCTYPE svg PUBLIC "-//W3C//DTD SVG 1.1//EN" "http://www.w3.org/Graphics/SVG/1.1/DTD/svg11.dtd" >
<svg xmlns="http://www.w3.org/2000/svg">
<metadata></metadata>
<defs>
<font id="proxima_novaregular" horiz-adv-x="1171" >
<font-face units-per-em="2048" ascent="1618" descent="-430" />
<missing-glyph horiz-adv-x="530" />
<glyph unicode="&#xd;" horiz-adv-x="682" />
<glyph unicode=" "  horiz-adv-x="530" />
<glyph unicode="&#x09;" horiz-adv-x="530" />
<glyph unicode="&#xa0;" horiz-adv-x="530" />
<glyph unicode="!" horiz-adv-x="471" d="M123 92q0 47 32.5 80t80 33t80 -33t32.5 -80q0 -45 -33.5 -78.5t-79 -33.5t-79 33.5t-33.5 78.5zM139 1366h193l-33 -983h-127z" />
<glyph unicode="&#x22;" horiz-adv-x="704" d="M111 1292q0 39 26.5 66.5t65.5 27.5t66.5 -27.5t27.5 -66.5l-55 -448h-76q-55 420 -55 448zM408 1292q0 39 27.5 66.5t66.5 27.5t65.5 -27.5t26.5 -66.5l-55 -448h-76q-55 420 -55 448z" />
<glyph unicode="#" horiz-adv-x="1210" d="M45 371l35 108h219l135 408h-221l33 106h225l123 373h127l-123 -373h225l123 373h125l-125 -373h219l-30 -106h-224l-137 -408h227l-32 -108h-232l-123 -371h-125l125 371h-227l-123 -371h-127l125 371h-217zM424 479h225l137 408h-225z" />
<glyph unicode="$" horiz-adv-x="1214" d="M88 193l102 131q141 -168 365 -193v498q-98 27 -157.5 49t-129 65t-103.5 109t-34 156q0 156 119 260t305 118v187h125v-189q244 -20 405 -188l-102 -125q-119 131 -303 158v-447q78 -23 128 -40t114.5 -51t102.5 -72.5t64.5 -101t26.5 -140.5q0 -156 -107.5 -269.5 t-328.5 -130.5v-182h-125v182q-293 18 -467 216zM307 1018q0 -78 63.5 -123t184.5 -80v418q-111 -8 -179.5 -67.5t-68.5 -147.5zM680 129q135 14 197.5 82t62.5 154q0 92 -67.5 143t-192.5 88v-467z" />
<glyph unicode="%" horiz-adv-x="1499" d="M63 1047q0 147 92.5 243t238 96t237.5 -96t92 -243q0 -143 -92 -238.5t-237.5 -95.5t-238 95t-92.5 239zM186 1047q0 -98 58.5 -164t148.5 -66t148.5 65.5t58.5 164.5q0 102 -57.5 168.5t-149.5 66.5q-90 0 -148.5 -66.5t-58.5 -168.5zM262 0l873 1366h114l-874 -1366 h-113zM776 311q0 145 92.5 241.5t237.5 96.5q143 0 235.5 -96t92.5 -241.5t-91.5 -241t-236.5 -95.5t-237.5 96.5t-92.5 239.5zM897 311.5q0 -100.5 58.5 -166t150.5 -65.5t149.5 65.5t57.5 166t-57.5 167t-149.5 66.5t-150.5 -66.5t-58.5 -167z" />
<glyph unicode="&#x26;" horiz-adv-x="1314" d="M76 356q0 145 80 237.5t221 170.5q-104 178 -105 307q0 135 99.5 225t244.5 90q135 0 221.5 -71.5t86.5 -196.5q0 -74 -27 -132t-86 -106.5t-103 -75t-133 -71.5q66 -88 160 -194q74 -88 162 -183q90 139 147 314l132 -60q-90 -217 -187 -352q127 -131 266 -258h-213 q-41 35 -149 143q-168 -168 -393 -168q-184 0 -304 99.5t-120 281.5zM320.5 173q80.5 -71 195.5 -71q154 0 285 136q-135 141 -189 206q-98 113 -170 218q-202 -122 -202 -293q0 -125 80.5 -196zM430 1067q0 -96 82 -236q133 66 201.5 127.5t68.5 153.5q0 74 -45 115 t-116 41q-80 0 -135.5 -56.5t-55.5 -144.5z" />
<glyph unicode="'" horiz-adv-x="407" d="M111 1292q0 39 26.5 66.5t65.5 27.5t66.5 -27.5t27.5 -66.5l-55 -448h-76q-55 420 -55 448z" />
<glyph unicode="(" horiz-adv-x="507" d="M90 497.5q0 508.5 289 905.5l94 -70q-109 -213 -162 -403.5t-53 -431.5q0 -240 53 -431.5t162 -402.5l-94 -72q-289 397 -289 905.5z" />
<glyph unicode=")" horiz-adv-x="507" d="M35 -336l94 -72q289 397 289 905.5t-289 905.5l-94 -70q109 -213 162 -403.5t53 -431.5q0 -240 -53 -431.5t-162 -402.5z" />
<glyph unicode="*" horiz-adv-x="696" d="M70 985l209 107l-209 106l45 82l198 -129l-12 235h94l-12 -235l197 129l47 -82l-209 -106l209 -107l-47 -80l-197 127l12 -235h-94l12 235l-198 -127z" />
<glyph unicode="+" horiz-adv-x="1021" d="M59 637v106h394v424h116v-424h394v-106h-394v-436h-116v436h-394z" />
<glyph unicode="," horiz-adv-x="471" d="M117 -197q51 33 89 87.5t44 103.5q-8 -4 -29 -4q-41 0 -69.5 29.5t-28.5 74.5t31.5 78t76.5 33q55 0 92 -42t37 -114q0 -90 -46 -173t-119 -136z" />
<glyph unicode="-" horiz-adv-x="614" d="M61 428v135h492v-135h-492z" />
<glyph unicode="." horiz-adv-x="473" d="M123 92q0 47 32.5 80t80 33t80 -33t32.5 -80t-32.5 -79.5t-80 -32.5t-80 32.5t-32.5 79.5z" />
<glyph unicode="/" horiz-adv-x="606" d="M0 -41l485 1448h121l-485 -1448h-121z" />
<glyph unicode="0" horiz-adv-x="1253" d="M104 682q0 131 30 252t90.5 224.5t164 165.5t238.5 62q133 0 237.5 -62t165 -165.5t90 -224.5t29.5 -252t-29.5 -252t-90 -225.5t-165 -167t-237.5 -62.5q-135 0 -238.5 62.5t-164 167t-90.5 225.5t-30 252zM279 682q0 -147 30.5 -266t112.5 -204t205 -85t204.5 85 t112.5 204t31 266t-31 266t-112.5 203t-204.5 84t-205 -84t-112.5 -203t-30.5 -266z" />
<glyph unicode="1" horiz-adv-x="694" d="M43 1014l342 352h150v-1366h-170v1143l-220 -234z" />
<glyph unicode="2" horiz-adv-x="1204" d="M109 1171q78 102 203.5 158.5t271.5 56.5q186 0 322 -104t136 -297q0 -190 -163.5 -379.5t-499.5 -453.5h670v-152h-938v137q420 328 589.5 506t169.5 342q0 123 -85 186.5t-201 63.5q-236 0 -371 -172z" />
<glyph unicode="3" horiz-adv-x="1140" d="M59 201l101 106q61 -82 161.5 -131t219.5 -49q147 0 233 69.5t86 186.5q0 123 -91 182.5t-249 59.5q-121 0 -141 -2v155q23 -2 141 -2q139 0 228.5 56.5t89.5 168.5q0 109 -87 171.5t-219 62.5q-207 0 -360 -166l-94 107q171 210 466 210h3q203 0 332 -97t129 -265 q0 -135 -90.5 -217t-202.5 -100q113 -12 214 -100.5t101 -237.5q0 -174 -132 -284t-353 -110q-164 0 -291 63.5t-195 162.5z" />
<glyph unicode="4" horiz-adv-x="1142" d="M66 346v141l585 879h234v-870h192v-150h-192v-346h-170v346h-649zM236 496h479v712z" />
<glyph unicode="5" horiz-adv-x="1208" d="M135 195l105 114q141 -182 376 -182q139 0 227.5 84t88.5 209q0 133 -87 214t-227 81q-182 0 -315 -127l-125 43v735h836v-152h-666v-475q127 123 320 123q182 0 309 -116.5t127 -319.5t-138.5 -327t-349.5 -124q-315 0 -481 220z" />
<glyph unicode="6" horiz-adv-x="1210" d="M104 682q0 299 142.5 501.5t415.5 202.5q238 0 376 -163l-86 -127q-119 139 -290 139q-186 0 -286 -157.5t-100 -379.5v-53q51 82 159 147.5t229 65.5q195 0 320.5 -113.5t125.5 -322.5q0 -184 -131 -315.5t-346 -131.5q-139 0 -243.5 57.5t-165 158t-90.5 223.5t-30 268 zM283 508q12 -152 96 -266.5t246 -114.5q147 0 230 90t83 199q0 143 -88 219t-225 76q-100 0 -192.5 -56.5t-149.5 -146.5z" />
<glyph unicode="7" horiz-adv-x="1054" d="M63 1214v152h932v-117l-559 -1249h-188l551 1214h-736z" />
<glyph unicode="8" horiz-adv-x="1191" d="M106 346q0 129 93.5 223.5t232.5 135.5q-131 37 -217 119.5t-86 207.5q0 172 139.5 263t327.5 91t328.5 -91t140.5 -263q0 -125 -87 -208t-218 -119q139 -41 232 -135.5t93 -223.5q0 -168 -140 -269.5t-349 -101.5t-349.5 100.5t-140.5 270.5zM279 365q0 -106 92 -172 t225 -66q131 0 224 65.5t93 172.5q0 82 -64.5 144t-131 88t-121.5 32q-55 -6 -121.5 -32t-131 -88.5t-64.5 -143.5zM301 1010q0 -57 33 -103.5t86 -72t94 -40t82 -20.5q41 6 83 20.5t95 40t86 71.5t33 104q0 102 -85 163.5t-212 61.5t-211 -60.5t-84 -164.5z" />
<glyph unicode="9" horiz-adv-x="1210" d="M100 942q0 184 131 315.5t349 131.5q137 0 241.5 -57.5t166 -158t91 -223.5t29.5 -268q0 -193 -57.5 -347.5t-186.5 -256t-313 -101.5q-233 0 -379 164l86 127q119 -139 293 -139q131 0 221 82t127 198.5t37 256.5q0 35 -2 53q-51 -82 -157.5 -147.5t-227.5 -65.5 q-195 0 -322 113.5t-127 322.5zM272 948q0 -143 88.5 -219t227.5 -76q100 0 193 56.5t149 148.5q-6 68 -27.5 131.5t-60.5 120.5t-105.5 92t-150.5 35q-145 0 -229.5 -89t-84.5 -200z" />
<glyph unicode=":" horiz-adv-x="460" d="M123 92q0 47 32.5 80t80 33t80 -33t32.5 -80t-32.5 -79.5t-80 -32.5t-80 32.5t-32.5 79.5zM123 891q0 47 32.5 80t80 33t80 -33t32.5 -80q0 -45 -33.5 -79t-79 -34t-79 34t-33.5 79z" />
<glyph unicode=";" horiz-adv-x="471" d="M117 -195q49 33 88 88.5t45 104.5q-8 -4 -29 -4q-41 0 -69.5 29.5t-28.5 74.5t31.5 78t76.5 33q55 0 92 -42t37 -114q0 -92 -46 -174t-119 -135zM123 891q0 47 32.5 80t80 33t80 -33t32.5 -80q0 -45 -33.5 -79t-79 -34t-79 34t-33.5 79z" />
<glyph unicode="&#x3c;" horiz-adv-x="1021" d="M59 631v108l904 449v-129l-773 -375l773 -371v-129z" />
<glyph unicode="=" horiz-adv-x="1021" d="M59 432v109h904v-109h-904zM59 827v109h904v-109h-904z" />
<glyph unicode="&#x3e;" horiz-adv-x="1021" d="M59 184v129l772 371l-772 375v129l904 -449v-108z" />
<glyph unicode="?" horiz-adv-x="946" d="M37 1178q159 208 441 208h3q182 0 292 -91t110 -226q0 -86 -41 -154.5t-100 -111.5l-116 -82q-57 -39 -98 -86t-41 -103q0 -61 54 -98l-125 -55q-78 66 -78 168q0 72 38 129t92 97l109 77q54 37 92 86t38 108q0 82 -62.5 136.5t-177.5 54.5q-203 0 -328 -168zM346 92 q0 47 34 80t79 33t78.5 -33t33.5 -80t-33.5 -79.5t-78.5 -32.5t-79 32.5t-34 79.5z" />
<glyph unicode="@" horiz-adv-x="1603" d="M72 500q0 328 244.5 567.5t568.5 239.5q285 0 465 -187.5t180 -462.5q0 -225 -106.5 -354t-247.5 -129q-82 0 -132.5 48t-54.5 118v14q-55 -80 -143 -130t-182 -50q-141 0 -227.5 92t-86.5 242q0 209 147.5 361.5t333.5 152.5q94 0 163 -45t100 -115l26 127h140 l-117 -555q-4 -25 -4 -43q0 -49 27.5 -77.5t68.5 -28.5q78 0 150.5 92t72.5 280q0 254 -160.5 417t-418.5 163q-295 0 -515.5 -222t-220.5 -511q0 -248 166 -414t420 -166q199 0 381 115l37 -53q-201 -129 -426 -129q-279 0 -464 185t-185 458zM498 516q0 -100 55.5 -163.5 t153.5 -63.5q176 0 303 184l59 285q-20 57 -74.5 103t-136.5 46q-150 0 -255 -118.5t-105 -272.5z" />
<glyph unicode="A" horiz-adv-x="1347" d="M18 0l551 1366h211l549 -1366h-194l-121 305h-680l-121 -305h-195zM385 455h580l-291 737z" />
<glyph unicode="B" horiz-adv-x="1288" d="M160 0v1366h608q176 0 279.5 -96t103.5 -252q0 -123 -69.5 -208t-170.5 -105q109 -16 188 -114.5t79 -221.5q0 -166 -106 -267.5t-290 -101.5h-622zM330 152h420q119 0 185 63.5t66 171.5q0 98 -66.5 167t-184.5 69h-420v-471zM330 774h409q113 0 174.5 61.5t61.5 158 t-62.5 158.5t-173.5 62h-409v-440z" />
<glyph unicode="C" horiz-adv-x="1384" d="M104 682q0 311 202 509t501 198q330 0 518 -271l-141 -80q-59 90 -160.5 144.5t-216.5 54.5q-227 0 -376.5 -155.5t-149.5 -399.5q0 -242 150.5 -398.5t375.5 -156.5q115 0 216 55.5t161 143.5l143 -78q-198 -273 -520 -273q-299 0 -501 198t-202 509z" />
<glyph unicode="D" horiz-adv-x="1433" d="M160 0v1366h467q313 0 506.5 -194.5t193.5 -489.5q0 -297 -192.5 -489.5t-507.5 -192.5h-467zM330 152h297q242 0 383 151.5t141 378.5q0 229 -139.5 380.5t-384.5 151.5h-297v-1062z" />
<glyph unicode="E" horiz-adv-x="1165" d="M160 0v1366h895v-152h-725v-440h710v-151h-710v-471h725v-152h-895z" />
<glyph unicode="F" horiz-adv-x="1128" d="M160 0v1366h895v-152h-725v-440h710v-151h-710v-623h-170z" />
<glyph unicode="G" horiz-adv-x="1460" d="M104 682q0 313 202 510t501 197q326 0 530 -254l-135 -86q-66 86 -171 137t-224 51q-227 0 -376.5 -155.5t-149.5 -399.5q0 -242 150.5 -398.5t375.5 -156.5q113 0 211 44t158 103v277h-471v151h638v-491q-210 -238 -536 -238q-297 0 -500 198t-203 511z" />
<glyph unicode="H" horiz-adv-x="1458" d="M160 0v1366h170v-588h798v588h170v-1366h-170v627h-798v-627h-170z" />
<glyph unicode="I" horiz-adv-x="489" d="M160 0v1366h170v-1366h-170z" />
<glyph unicode="J" horiz-adv-x="972" d="M23 133l90 129q109 -135 256 -135q125 0 199.5 79t74.5 208v952h170v-954q0 -213 -120.5 -325t-313.5 -112q-221 0 -356 158z" />
<glyph unicode="K" horiz-adv-x="1230" d="M160 0v1366h170v-704l604 704h213l-569 -647l620 -719h-213l-518 614l-137 -155v-459h-170z" />
<glyph unicode="L" horiz-adv-x="1009" d="M137 0v1366h170v-1214h635v-152h-805z" />
<glyph unicode="M" horiz-adv-x="1656" d="M160 0v1366h243l426 -1053l424 1053h244v-1366h-170v1149l-463 -1149h-69l-465 1149v-1149h-170z" />
<glyph unicode="N" horiz-adv-x="1449" d="M160 0v1366h174l786 -1067v1067h170v-1366h-164l-796 1090v-1090h-170z" />
<glyph unicode="O" horiz-adv-x="1566" d="M104 682q0 305 189.5 506t488.5 201t489.5 -201t190.5 -506t-190.5 -506t-489.5 -201t-488.5 201t-189.5 506zM281 682q0 -242 137 -398.5t364 -156.5q225 0 364.5 156.5t139.5 398.5t-139 398.5t-365 156.5q-227 0 -364 -155.5t-137 -399.5z" />
<glyph unicode="P" horiz-adv-x="1202" d="M160 0v1366h549q199 0 313.5 -119t114.5 -293t-116 -292.5t-312 -118.5h-379v-543h-170zM330 694h358q121 0 197 73t76 187.5t-76 187t-197 72.5h-358v-520z" />
<glyph unicode="Q" horiz-adv-x="1566" d="M104 682q0 305 189.5 506t488.5 201t489.5 -201t190.5 -506t-188 -506l129 -137l-117 -102l-133 141q-160 -103 -371 -103q-299 0 -488.5 201t-189.5 506zM281 682q0 -242 137 -398.5t364 -156.5q145 0 260 70l-194 211l119 100l192 -209q127 156 127 383 q0 242 -139 398.5t-365 156.5q-227 0 -364 -155.5t-137 -399.5z" />
<glyph unicode="R" horiz-adv-x="1247" d="M160 0v1366h549q190 0 310 -112.5t120 -299.5q0 -176 -103.5 -280.5t-253.5 -116.5l369 -557h-201l-346 543h-274v-543h-170zM330 692h358q121 0 198 74t77 188q0 117 -77 188.5t-198 71.5h-358v-522z" />
<glyph unicode="S" horiz-adv-x="1200" d="M78 193l102 131q170 -197 428 -197q166 0 244 71.5t78 166.5q0 96 -83 153t-203 87t-238.5 66t-201.5 118.5t-83 218.5q0 168 133 274.5t338 106.5q301 0 483 -193l-102 -125q-145 164 -395 164q-123 0 -202 -60.5t-79 -156.5q0 -72 60.5 -119t149.5 -69.5t194.5 -56.5 t194.5 -71.5t149.5 -121.5t60.5 -203q0 -166 -124 -284t-380 -118q-332 0 -524 218z" />
<glyph unicode="T" horiz-adv-x="1167" d="M66 1214v152h1036v-152h-434v-1214h-170v1214h-432z" />
<glyph unicode="U" horiz-adv-x="1435" d="M160 530v836h172v-831q0 -190 99 -299t285.5 -109t287 108.5t100.5 299.5v831h172v-834q0 -260 -143.5 -408.5t-415.5 -148.5q-270 0 -413.5 148.5t-143.5 406.5z" />
<glyph unicode="V" horiz-adv-x="1347" d="M18 1366h195l461 -1180l461 1180h194l-549 -1366h-211z" />
<glyph unicode="W" horiz-adv-x="1808" d="M29 1366h188l303 -1139l314 1139h141l313 -1139l301 1139h191l-391 -1366h-185l-301 1102l-301 -1102h-184z" />
<glyph unicode="X" horiz-adv-x="1335" d="M25 0l532 700l-502 666h207l406 -545l403 545h209l-502 -664l533 -702h-207l-436 582l-437 -582h-206z" />
<glyph unicode="Y" horiz-adv-x="1282" d="M18 1366h199l424 -635l424 635h199l-537 -788v-578h-170v578z" />
<glyph unicode="Z" horiz-adv-x="1198" d="M98 0v141l768 1073h-768v152h987v-141l-770 -1073h785v-152h-1002z" />
<glyph unicode="[" horiz-adv-x="497" d="M82 -389v1778h381v-113h-260v-1552h260v-113h-381z" />
<glyph unicode="\" horiz-adv-x="606" d="M0 1407h121l485 -1448h-121z" />
<glyph unicode="]" horiz-adv-x="497" d="M35 -276h262v1552h-262v113h383v-1778h-383v113z" />
<glyph unicode="^" horiz-adv-x="884" d="M39 682l346 684h117l344 -684h-127l-277 571l-276 -571h-127z" />
<glyph unicode="_" horiz-adv-x="1155" d="M-6 -82h1167v-113h-1167v113z" />
<glyph unicode="a" horiz-adv-x="1081" d="M100 303q0 158 102.5 242t241.5 84q209 0 328 -133v178q0 96 -69.5 151.5t-180.5 55.5q-178 0 -303 -138l-72 107q158 164 396 164q170 0 276.5 -82t106.5 -252v-680h-154v113q-121 -137 -328 -138q-135 0 -239.5 88.5t-104.5 239.5zM256 303q0 -96 68.5 -156.5 t177.5 -60.5q182 0 270 123v188q-90 121 -270 121q-109 0 -177.5 -60.5t-68.5 -154.5z" />
<glyph unicode="b" horiz-adv-x="1177" d="M154 0v1366h153v-526q129 174 334 174q197 0 318.5 -142.5t121.5 -377.5q0 -238 -121.5 -378.5t-318.5 -140.5q-207 0 -334 172v-147h-153zM307 268q41 -66 124 -110.5t173 -44.5q145 0 231.5 106.5t86.5 274.5t-86 275.5t-232 107.5q-90 0 -173 -46.5t-124 -113.5v-449z " />
<glyph unicode="c" horiz-adv-x="1015" d="M96 495.5q0 223.5 137.5 371t356.5 147.5q229 0 362 -172l-102 -92q-92 127 -252 127q-154 0 -248 -107.5t-94 -273.5q0 -168 94 -275.5t248 -107.5q156 0 252 129l102 -95q-133 -172 -362 -172q-219 0 -356.5 148.5t-137.5 372z" />
<glyph unicode="d" horiz-adv-x="1177" d="M96 494q0 236 123 378t318 142q205 0 333 -174v526h154v-1366h-154v147q-127 -172 -333 -172q-197 0 -319 140.5t-122 378.5zM256 494q0 -168 86 -274.5t233 -106.5q88 0 171 46t124 111v447q-41 68 -123.5 114t-171.5 46q-147 0 -233 -107.5t-86 -275.5z" />
<glyph unicode="e" horiz-adv-x="1153" d="M96 496q0 217 139.5 367.5t348.5 150.5q219 0 347 -150.5t128 -380.5v-39h-799q10 -145 105.5 -243.5t248.5 -98.5q184 0 308 127l73 -100q-157 -154 -393 -154q-223 0 -364.5 144.5t-141.5 376.5zM258 559h649q-2 125 -86 226.5t-239 101.5q-147 0 -232.5 -100.5 t-91.5 -227.5z" />
<glyph unicode="f" horiz-adv-x="581" d="M33 854v135h164v76q0 152 77.5 236.5t208.5 84.5q127 0 209 -75l-63 -99q-53 47 -121 48q-158 0 -158 -195v-76h201v-135h-201v-854h-153v854h-164z" />
<glyph unicode="g" horiz-adv-x="1177" d="M96 499.5q0 235.5 122 375t319 139.5q205 0 333 -174v149h154v-975q0 -217 -134 -316t-339 -99q-129 0 -221 32.5t-178 116.5l77 111q113 -133 322 -133q135 0 227 70.5t92 217.5v150q-57 -80 -145 -128t-188 -48q-197 0 -319 138t-122 373.5zM256 500q0 -166 86 -270.5 t233 -104.5q88 0 170 46t125 114v434q-43 66 -124.5 112t-170.5 46q-147 0 -233 -104.5t-86 -272.5z" />
<glyph unicode="h" horiz-adv-x="1130" d="M156 0v1366h153v-520q55 70 151.5 119t201.5 49q315 0 315 -316v-698h-154v651q0 125 -57 175.5t-166 50.5q-84 0 -165 -45.5t-126 -108.5v-723h-153z" />
<glyph unicode="i" horiz-adv-x="460" d="M127 1233q0 43 30.5 73.5t73.5 30.5t73 -30.5t30 -73.5t-30 -73t-73 -30t-73.5 30t-30.5 73zM154 0v989h153v-989h-153z" />
<glyph unicode="j" horiz-adv-x="460" d="M-201 -328l54 115q61 -61 141 -61q74 0 117 44t43 134v1085h153v-1085q0 -147 -76 -226t-217 -79q-123 0 -215 73zM127 1233q0 43 30.5 73.5t73.5 30.5t73 -30.5t30 -73.5t-30 -73t-73 -30t-73.5 30t-30.5 73z" />
<glyph unicode="k" horiz-adv-x="1052" d="M154 0v1366h153v-903l520 526h195l-438 -448l440 -541h-197l-354 444l-166 -161v-283h-153z" />
<glyph unicode="l" horiz-adv-x="460" d="M154 0v1366h153v-1366h-153z" />
<glyph unicode="m" horiz-adv-x="1654" d="M154 0v989h153v-143q39 59 130 113.5t192 54.5q106 0 173.5 -51.5t90.5 -133.5q45 74 137 129.5t195 55.5q276 0 276 -299v-715h-153v672q0 205 -183 205q-74 0 -147.5 -44.5t-114.5 -107.5v-725h-153v672q0 205 -183 205q-72 0 -144.5 -45.5t-115.5 -108.5v-723h-153z " />
<glyph unicode="n" horiz-adv-x="1130" d="M154 0v989h153v-143q57 70 153.5 119t201.5 49q313 0 313 -320v-694h-152v647q0 125 -57 177.5t-166 52.5q-86 0 -166 -45.5t-127 -108.5v-723h-153z" />
<glyph unicode="o" d="M96 495.5q0 221.5 134.5 370t355.5 148.5t355 -148.5t134 -370t-134 -371t-355 -149.5t-355.5 149.5t-134.5 371zM258 495.5q0 -159.5 88 -271t239.5 -111.5t239.5 111.5t88 271t-88 270.5t-239.5 111t-239.5 -111t-88 -270.5z" />
<glyph unicode="p" d="M154 -377v1366h153v-147q55 78 143.5 125t190.5 47q197 0 318.5 -140.5t121.5 -378t-121.5 -379t-318.5 -141.5q-203 0 -334 175v-527h-153zM307 272q41 -68 124 -113.5t171 -45.5q145 0 231.5 107.5t86.5 275.5t-86 274.5t-232 106.5q-88 0 -171 -46.5t-124 -111.5v-447 z" />
<glyph unicode="q" d="M90 495.5q0 237.5 122 378t318 140.5q102 0 190.5 -47t143.5 -125v147h154v-1366h-154v527q-131 -175 -334 -175q-197 0 -318.5 141.5t-121.5 379zM252 496q0 -168 86 -275.5t231 -107.5q88 0 171 46t124 113v447q-41 66 -124 112t-171 46q-145 0 -231 -106.5t-86 -274.5 z" />
<glyph unicode="r" horiz-adv-x="675" d="M154 0v989h153v-158q141 180 330 181v-158q-37 4 -59 4q-72 0 -154 -48t-117 -110v-700h-153z" />
<glyph unicode="s" horiz-adv-x="952" d="M70 131l77 111q51 -59 140.5 -100.5t185.5 -41.5q111 0 173.5 47.5t62.5 122.5q0 66 -63.5 104t-154 57.5t-179.5 45t-152.5 88t-63.5 164.5q0 121 98.5 203t268.5 82q227 0 366 -144l-71 -106q-104 125 -295 125q-100 0 -159.5 -44t-59.5 -112q0 -49 45 -82t113.5 -47 t147.5 -36.5t147.5 -50.5t113.5 -90t45 -153q0 -131 -101.5 -215t-285.5 -84q-250 0 -399 156z" />
<glyph unicode="t" horiz-adv-x="602" d="M20 854v135h164v271h156v-271h201v-135h-201v-614q0 -57 25.5 -92t72.5 -35q66 0 105 43l45 -117q-67 -64 -182 -64q-221 0 -222 232v647h-164z" />
<glyph unicode="u" horiz-adv-x="1128" d="M154 291v698h153v-651q0 -123 57.5 -174t165.5 -51q86 0 166 43t125 106v727h154v-989h-154v139q-61 -70 -154.5 -117t-197.5 -47q-315 0 -315 316z" />
<glyph unicode="v" horiz-adv-x="1003" d="M6 989h168l328 -811l329 811h166l-411 -989h-168z" />
<glyph unicode="w" horiz-adv-x="1503" d="M25 989h159l242 -788l260 788h133l258 -788l242 788h162l-316 -989h-155l-258 795l-258 -795h-154z" />
<glyph unicode="x" horiz-adv-x="997" d="M25 0l378 508l-358 481h178l275 -377l276 377h176l-358 -481l381 -508h-176l-299 406l-297 -406h-176z" />
<glyph unicode="y" horiz-adv-x="1003" d="M6 989h168l328 -811l329 811h166l-495 -1190q-82 -197 -291 -200q-64 0 -111 14l23 139q37 -16 84 -16q53 0 88 22.5t59 81.5l66 150z" />
<glyph unicode="z" horiz-adv-x="966" d="M106 0v121l545 733h-545v135h746v-117l-549 -737h557v-135h-754z" />
<glyph unicode="{" horiz-adv-x="534" d="M10 449v102q53 0 81 40t28 101v420q0 123 75.5 200t178.5 77h127v-113h-127q-55 0 -95 -46t-40 -116v-434q0 -141 -93 -180q92 -39 93 -181v-432q0 -70 39.5 -116.5t95.5 -46.5h127v-113h-127q-102 0 -178 76.5t-76 197.5v422q0 61 -28 101.5t-81 40.5z" />
<glyph unicode="|" horiz-adv-x="432" d="M160 -41v1448h112v-1448h-112z" />
<glyph unicode="}" horiz-adv-x="534" d="M35 -276h125q55 0 96 47t41 116v432q0 141 92 181q-92 39 -92 180v434q0 70 -40 116t-97 46h-125v113h125q102 0 179 -77t77 -200v-420q0 -61 27.5 -101t78.5 -40v-102q-51 0 -78.5 -40t-27.5 -102v-422q0 -121 -77 -197.5t-179 -76.5h-125v113z" />
<glyph unicode="~" horiz-adv-x="1030" d="M55 879q10 102 26.5 181t47.5 152.5t84 112.5t125 39t120 -40t71.5 -98.5t43 -115.5t48 -97t71.5 -40q129 0 168 393l113 -12q-10 -104 -25.5 -182t-46.5 -153t-83 -114t-126 -39q-72 0 -120 40t-71.5 97.5t-43 115t-48 97t-71.5 39.5q-129 0 -168 -391z" />
<glyph unicode="&#xa1;" horiz-adv-x="471" d="M123 897q0 45 32.5 79t80.5 34q45 0 77.5 -33t32.5 -80q0 -45 -32.5 -78t-78 -33t-79 33t-33.5 78zM139 -377l31 983h129l33 -983h-193z" />
<glyph unicode="&#xa2;" horiz-adv-x="1015" d="M96 496q0 201 116 343t304 169v149h121v-145q193 -16 315 -170l-102 -92q-82 113 -213 124v-759q129 12 213 127l102 -95q-119 -154 -315 -170v-182h-121v187q-188 25 -304 168t-116 346zM256 495.5q0 -143.5 69.5 -246t190.5 -128.5v747q-121 -27 -190.5 -128 t-69.5 -244.5z" />
<glyph unicode="&#xa3;" horiz-adv-x="1060" d="M41 549v110h215q-57 66 -78.5 93.5t-50.5 94t-29 136.5q0 168 135.5 285.5t323.5 117.5q139 0 247.5 -60t166.5 -169l-137 -82q-27 70 -98.5 119t-162.5 49q-121 0 -205.5 -71.5t-84.5 -190.5q0 -53 18 -103.5t34.5 -76t57.5 -75.5t53 -67h308v-110h-250q14 -47 14 -88 q0 -160 -156 -271q55 18 107 19q68 0 158 -42t145 -42q63 0 117.5 25.5t77.5 56.5l73 -137q-100 -96 -276 -97q-96 0 -194.5 47.5t-172.5 47.5q-86 0 -241 -82l-60 129q131 57 201 138t70 173q0 61 -31 123h-295z" />
<glyph unicode="&#xa4;" horiz-adv-x="1069" d="M74 281l114 114q-102 129 -102 287q0 162 102 287l-114 116l57 58l117 -115q121 102 287 102q162 0 286 -102l115 115l59 -58l-114 -116q102 -125 102 -287q0 -158 -102 -287l114 -114l-59 -60l-115 117q-123 -104 -287 -104q0 -1 -1 -1q-163 0 -285 105l-117 -117z M184 682q0 -145 102.5 -247.5t248 -102.5t248 102.5t102.5 247.5t-102.5 247.5t-248 102.5t-248 -102.5t-102.5 -247.5z" />
<glyph unicode="&#xa5;" horiz-adv-x="1282" d="M18 1366h199l424 -635l424 635h199l-465 -682h440v-106h-512v-220h512v-108h-512v-250h-170v250h-512v108h512v220h-512v106h438z" />
<glyph unicode="&#xa6;" horiz-adv-x="432" d="M160 -41v647h112v-647h-112zM160 760v647h112v-647h-112z" />
<glyph unicode="&#xa7;" horiz-adv-x="958" d="M70 -6l77 100q121 -145 322 -145q106 0 173 47t67 129q0 70 -63.5 109.5t-154 61t-179.5 48.5t-152.5 89.5t-63.5 162.5t66.5 166.5t167.5 93.5q-233 74 -234 254q0 117 99.5 196.5t267.5 79.5q238 0 366 -145l-71 -92q-102 123 -289 123q-100 0 -162.5 -45t-62.5 -119 q0 -53 45 -87t113.5 -49.5t147.5 -38t147.5 -49t113.5 -88t45 -151.5q0 -180 -188 -260q188 -74 188 -250q0 -141 -106.5 -221t-280.5 -80q-236 0 -399 160zM244 610q0 -53 45 -91t85 -51t138 -38q14 -4 23 -6q170 74 170 203q0 78 -62.5 118.5t-169.5 67.5 q-127 -33 -178 -82t-51 -121z" />
<glyph unicode="&#xa8;" horiz-adv-x="557" d="M-29 1237q0 39 28 66.5t69 27.5q39 0 66.5 -27.5t27.5 -66.5t-28 -66.5t-66.5 -27.5t-67.5 27.5t-29 66.5zM395 1237q0 39 28 66.5t66 27.5q41 0 69 -27.5t28 -66.5t-29 -66.5t-67.5 -27.5t-66.5 27.5t-28 66.5z" />
<glyph unicode="&#xa9;" horiz-adv-x="1593" d="M90 684q0 293 207 500t500 207t499.5 -207t206.5 -500t-206.5 -500t-499.5 -207t-500 208t-207 499zM154 684q0 -264 189 -453.5t454 -189.5q266 0 454.5 189.5t188.5 453.5q0 266 -188.5 454.5t-454.5 188.5q-264 0 -453.5 -188.5t-189.5 -454.5zM375 688q0 186 124 310 t302 124q186 0 299 -133l-51 -51q-39 53 -108 85t-140 32q-143 0 -246.5 -103.5t-103.5 -265.5q0 -158 104 -264.5t246 -106.5q74 0 140.5 33t107.5 86l53 -51q-117 -135 -301 -135q-178 0 -302 127t-124 313z" />
<glyph unicode="&#xaa;" horiz-adv-x="774" d="M84 864q0 100 68.5 155.5t160.5 55.5q139 0 222 -86v113q0 61 -47.5 97t-116.5 36q-121 0 -201 -94l-53 78q105 108 265 108h3q117 0 191.5 -55t74.5 -172v-432h-116v71q-84 -88 -222 -88q-90 0 -159.5 57.5t-69.5 155.5zM203 864q0 -61 43.5 -98t111.5 -37q115 0 177 78 v115q-60 77 -174 77h-3q-68 0 -111.5 -37.5t-43.5 -97.5z" />
<glyph unicode="&#xab;" horiz-adv-x="899" d="M61 498l328 362h154l-328 -362l328 -369h-154zM356 498l328 362h154l-328 -362l328 -369h-154z" />
<glyph unicode="&#xac;" horiz-adv-x="1032" d="M59 827v109h904v-504h-113v395h-791z" />
<glyph unicode="&#xad;" horiz-adv-x="614" d="M61 428v135h492v-135h-492z" />
<glyph unicode="&#xae;" horiz-adv-x="1011" d="M72 952.5q0 180.5 127 307t307 126.5q182 0 308 -126t126 -308q0 -180 -127 -307t-307 -127t-307 127t-127 307.5zM131 952q0 -154 109.5 -264t265.5 -110t265.5 110t109.5 264q0 158 -109.5 266.5t-265.5 108.5t-265.5 -108.5t-109.5 -266.5zM340 702v498h203 q66 0 111.5 -42t45.5 -109q0 -72 -46 -110t-81 -38l134 -199h-82l-129 197h-90v-197h-66zM406 958h137q33 0 61.5 27t28.5 64q0 39 -27.5 66.5t-62.5 27.5h-137v-185z" />
<glyph unicode="&#xb0;" horiz-adv-x="593" d="M47 1137q0 102 73 175.5t177 73.5q102 0 176 -73.5t74 -175.5q0 -104 -74 -177t-176 -73q-104 0 -177 72.5t-73 177.5zM147 1137q0 -63 43 -106.5t107 -43.5q61 0 106.5 44t45.5 105.5t-45.5 106.5t-106.5 45t-105.5 -45t-44.5 -106z" />
<glyph unicode="&#xb1;" horiz-adv-x="1021" d="M59 0v109h904v-109h-904zM59 664v106h394v424h116v-424h394v-106h-394v-437h-116v437h-394z" />
<glyph unicode="&#xb2;" horiz-adv-x="794" d="M100 1565q49 61 130 95t171 34q123 0 208 -61.5t85 -180.5q0 -113 -102.5 -226.5t-308.5 -262.5h415v-101h-596v92q256 184 362.5 290t106.5 200q0 74 -51 111.5t-122.5 37.5t-133 -30.5t-96.5 -75.5z" />
<glyph unicode="&#xb3;" horiz-adv-x="794" d="M86 981l68 78q88 -111 237 -111q88 0 138.5 39t50.5 105q0 141 -213 141q-70 0 -82 -2v102q14 -2 82 -2q200 0 200 130q0 62 -52 97t-132 35q-131 0 -223 -98l-64 72q113 127 299 127q131 0 212 -59.5t81 -159.5q0 -82 -55 -130.5t-127 -58.5q72 -8 134 -60.5t62 -140.5 q0 -106 -82.5 -171.5t-226.5 -65.5q-211 0 -307 133z" />
<glyph unicode="&#xb4;" horiz-adv-x="462" d="M0 1139l303 295h160l-346 -295h-117z" />
<glyph unicode="&#xb6;" horiz-adv-x="919" d="M55 1013.5q0 145.5 103.5 249t249.5 103.5h366v-1571h-92v1479h-182v-1479h-92v867q-145 0 -249 103t-104 248.5z" />
<glyph unicode="&#xb8;" horiz-adv-x="419" d="M0 -330l39 78q74 -59 164 -59q53 0 89 22.5t36 63.5q0 71 -74 71h-2q-49 0 -78 -34l-68 38l64 173h92l-53 -136q29 23 76 23q59 0 97 -38t38 -99q0 -74 -60.5 -119t-152.5 -45q-129 0 -207 61z" />
<glyph unicode="&#xb9;" horiz-adv-x="481" d="M29 1456l221 225h108v-819h-122v660l-136 -142z" />
<glyph unicode="&#xba;" horiz-adv-x="829" d="M82 989q0 143 91 240.5t241 97.5q152 0 243 -97t91 -240.5t-91 -241t-243 -97.5q-147 0 -239.5 98.5t-92.5 239.5zM205 989q0 -104 56.5 -171.5t152.5 -67.5q98 0 155.5 68.5t57.5 171t-57.5 170t-155.5 67.5q-96 0 -152.5 -67.5t-56.5 -170.5z" />
<glyph unicode="&#xbb;" horiz-adv-x="899" d="M61 129l328 369l-328 362h154l328 -362l-328 -369h-154zM356 129l328 369l-328 362h154l328 -362l-328 -369h-154z" />
<glyph unicode="&#xbc;" horiz-adv-x="1576" d="M29 1141l221 225h108v-819h-122v659l-136 -141zM223 0l873 1366h112l-874 -1366h-111zM860 205v92l354 522h170v-514h117v-100h-117v-205h-122v205h-402zM983 305h279v406z" />
<glyph unicode="&#xbd;" horiz-adv-x="1652" d="M29 1141l221 225h108v-819h-122v659l-136 -141zM223 0l873 1366h112l-874 -1366h-111zM958 702q102 129 302 129q123 0 207.5 -61t84.5 -180q0 -113 -102 -226.5t-309 -263.5h415v-100h-595v92q256 184 362.5 289.5t106.5 200.5q0 74 -51.5 111.5t-123 37.5t-133 -30.5 t-96.5 -75.5z" />
<glyph unicode="&#xbe;" horiz-adv-x="1798" d="M86 666l68 77q87 -110 234 -110h3q88 0 138.5 39t50.5 104q0 141 -213 142q-70 0 -82 -3v103q14 -2 82 -2q200 0 200 130q0 62 -52 97t-132 35q-131 0 -223 -98l-64 71q113 127 299 127q131 0 212 -59t81 -160q0 -82 -55 -130t-127 -58q72 -8 134 -60.5t62 -140.5 q0 -106 -82.5 -172t-226.5 -66q-211 0 -307 134zM444 0l873 1366h113l-875 -1366h-111zM1083 205v92l355 522h170v-514h116v-100h-116v-205h-123v205h-402zM1206 305h279v406z" />
<glyph unicode="&#xbf;" horiz-adv-x="806" d="M63 -84q0 86 41 154.5t100 111.5l116 82q57 39 98 86t41 103q0 61 -53 98l124 55q78 -66 78 -168q0 -72 -38 -129t-92 -97l-108 -77q-55 -37 -92.5 -86t-37.5 -108q0 -82 62.5 -136.5t176.5 -54.5q203 0 328 166l102 -109q-159 -208 -441 -208h-3q-182 0 -292 91 t-110 226zM375 897q0 45 33.5 79t78.5 34t79 -34t34 -79t-34 -79t-79 -34t-78.5 34t-33.5 79z" />
<glyph unicode="&#xc0;" horiz-adv-x="1347" d="M18 0l551 1366h211l549 -1366h-194l-121 305h-680l-121 -305h-195zM348 1786h160l303 -295h-117zM385 455h580l-291 737z" />
<glyph unicode="&#xc1;" horiz-adv-x="1347" d="M18 0l551 1366h211l549 -1366h-194l-121 305h-680l-121 -305h-195zM385 455h580l-291 737zM541 1491l303 295h160l-347 -295h-116z" />
<glyph unicode="&#xc2;" horiz-adv-x="1347" d="M18 0l551 1366h211l549 -1366h-194l-121 305h-680l-121 -305h-195zM385 455h580l-291 737zM406 1491l194 295h148l200 -295h-104l-170 217l-164 -217h-104z" />
<glyph unicode="&#xc3;" horiz-adv-x="1347" d="M18 0l551 1366h211l549 -1366h-194l-121 305h-680l-121 -305h-195zM354 1499q0 123 52.5 199t146.5 76q49 0 87 -30t57.5 -64.5t47 -64.5t60.5 -30q43 0 70.5 44t27.5 132h92q0 -123 -52 -198.5t-146 -75.5q-49 0 -87 29.5t-57.5 64.5t-47 64.5t-60.5 29.5q-43 0 -71 -44 t-28 -132h-92zM385 455h580l-291 737z" />
<glyph unicode="&#xc4;" horiz-adv-x="1347" d="M18 0l551 1366h211l549 -1366h-194l-121 305h-680l-121 -305h-195zM369 1583q0 39 27.5 66.5t68.5 27.5q39 0 66.5 -27.5t27.5 -66.5t-27.5 -66.5t-66.5 -27.5t-67.5 27.5t-28.5 66.5zM385 455h580l-291 737zM793 1583q0 39 27.5 66.5t66.5 27.5q41 0 68.5 -27.5 t27.5 -66.5t-28.5 -66.5t-67.5 -27.5t-66.5 27.5t-27.5 66.5z" />
<glyph unicode="&#xc5;" horiz-adv-x="1347" d="M18 0l551 1366h211l549 -1366h-194l-121 305h-680l-121 -305h-195zM385 455h580l-291 737zM473 1620q0 84 60.5 143.5t142.5 59.5t140 -59.5t58 -143.5t-58 -143.5t-140 -59.5t-142.5 59.5t-60.5 143.5zM555 1620q0 -49 35 -85t86 -36q49 0 84 36t35 85t-35 85t-84 36 q-51 0 -86 -36t-35 -85z" />
<glyph unicode="&#xc6;" horiz-adv-x="1941" d="M14 0l852 1366h963v-152h-725v-440h711v-151h-711v-471h725v-152h-895v305h-537l-188 -305h-195zM479 455h455v737z" />
<glyph unicode="&#xc7;" horiz-adv-x="1384" d="M104 682q0 311 202 509t501 198q330 0 518 -271l-141 -80q-59 90 -160.5 144.5t-216.5 54.5q-227 0 -376.5 -155.5t-149.5 -399.5q0 -242 150.5 -398.5t375.5 -156.5q115 0 216 55.5t161 143.5l143 -78q-195 -264 -500 -273l-30 -79q28 22 71 22h4q59 0 97.5 -38 t38.5 -99q0 -74 -60.5 -119t-152.5 -45q-131 0 -207 61l39 78q74 -59 164 -59q53 0 88.5 22.5t35.5 63.5q0 72 -75 72q-49 0 -78 -35l-68 39l43 121q-274 23 -453.5 216t-179.5 486z" />
<glyph unicode="&#xc8;" horiz-adv-x="1165" d="M160 0v1366h895v-152h-725v-440h710v-151h-710v-471h725v-152h-895zM281 1786h159l303 -295h-116z" />
<glyph unicode="&#xc9;" horiz-adv-x="1165" d="M160 0v1366h895v-152h-725v-440h710v-151h-710v-471h725v-152h-895zM471 1491l303 295h160l-346 -295h-117z" />
<glyph unicode="&#xca;" horiz-adv-x="1165" d="M160 0v1366h895v-152h-725v-440h710v-151h-710v-471h725v-152h-895zM334 1491l194 295h148l201 -295h-105l-170 217l-164 -217h-104z" />
<glyph unicode="&#xcb;" horiz-adv-x="1165" d="M160 0v1366h895v-152h-725v-440h710v-151h-710v-471h725v-152h-895zM299 1583q0 39 27.5 66.5t68.5 27.5q39 0 66.5 -27.5t27.5 -66.5t-27.5 -66.5t-66.5 -27.5t-67.5 27.5t-28.5 66.5zM723 1583q0 39 27.5 66.5t66.5 27.5q41 0 68.5 -27.5t27.5 -66.5t-28.5 -66.5 t-67.5 -27.5t-66.5 27.5t-27.5 66.5z" />
<glyph unicode="&#xcc;" horiz-adv-x="489" d="M-84 1786h160l303 -295h-117zM160 0v1366h170v-1366h-170z" />
<glyph unicode="&#xcd;" horiz-adv-x="489" d="M113 1491l303 295h159l-346 -295h-116zM160 0v1366h170v-1366h-170z" />
<glyph unicode="&#xce;" horiz-adv-x="489" d="M-27 1491l195 295h147l201 -295h-104l-170 217l-164 -217h-105zM160 0v1366h170v-1366h-170z" />
<glyph unicode="&#xcf;" horiz-adv-x="489" d="M-63 1583q0 39 27.5 66.5t68.5 27.5q39 0 66.5 -27.5t27.5 -66.5t-27.5 -66.5t-66.5 -27.5t-67.5 27.5t-28.5 66.5zM160 0v1366h170v-1366h-170zM360 1583q0 39 28 66.5t67 27.5q41 0 68.5 -27.5t27.5 -66.5t-28.5 -66.5t-67.5 -27.5t-67 27.5t-28 66.5z" />
<glyph unicode="&#xd0;" horiz-adv-x="1490" d="M20 612v125h197v629h467q313 0 506.5 -194.5t193.5 -489.5q0 -297 -192.5 -489.5t-507.5 -192.5h-467v612h-197zM387 152h297q242 0 383 151.5t141 378.5q0 229 -139 380.5t-385 151.5h-297v-477h346v-125h-346v-460z" />
<glyph unicode="&#xd1;" horiz-adv-x="1449" d="M160 0v1366h174l786 -1067v1067h170v-1366h-164l-796 1090v-1090h-170zM401 1499q0 123 52.5 199t146.5 76q49 0 87 -30t57.5 -64.5t47 -64.5t60.5 -30q43 0 70.5 44t27.5 132h92q0 -123 -52 -198.5t-146 -75.5q-49 0 -87 29.5t-57.5 64.5t-47 64.5t-60.5 29.5 q-43 0 -70.5 -44t-27.5 -132h-93z" />
<glyph unicode="&#xd2;" horiz-adv-x="1566" d="M104 682q0 305 189.5 506t488.5 201t489.5 -201t190.5 -506t-190.5 -506t-489.5 -201t-488.5 201t-189.5 506zM281 682q0 -242 137 -398.5t364 -156.5q225 0 364.5 156.5t139.5 398.5t-139 398.5t-365 156.5q-227 0 -364 -155.5t-137 -399.5zM463 1786h160l303 -295h-117 z" />
<glyph unicode="&#xd3;" horiz-adv-x="1566" d="M104 682q0 305 189.5 506t488.5 201t489.5 -201t190.5 -506t-190.5 -506t-489.5 -201t-488.5 201t-189.5 506zM281 682q0 -242 137 -398.5t364 -156.5q225 0 364.5 156.5t139.5 398.5t-139 398.5t-365 156.5q-227 0 -364 -155.5t-137 -399.5zM651 1491l303 295h160 l-346 -295h-117z" />
<glyph unicode="&#xd4;" horiz-adv-x="1566" d="M104 682q0 305 189.5 506t488.5 201t489.5 -201t190.5 -506t-190.5 -506t-489.5 -201t-488.5 201t-189.5 506zM281 682q0 -242 137 -398.5t364 -156.5q225 0 364.5 156.5t139.5 398.5t-139 398.5t-365 156.5q-227 0 -364 -155.5t-137 -399.5zM516 1491l195 295h147 l201 -295h-105l-170 217l-163 -217h-105z" />
<glyph unicode="&#xd5;" horiz-adv-x="1566" d="M104 682q0 305 189.5 506t488.5 201t489.5 -201t190.5 -506t-190.5 -506t-489.5 -201t-488.5 201t-189.5 506zM281 682q0 -242 137 -398.5t364 -156.5q225 0 364.5 156.5t139.5 398.5t-139 398.5t-365 156.5q-227 0 -364 -155.5t-137 -399.5zM463 1499q0 123 52 199 t147 76q49 0 86.5 -30t57 -64.5t47.5 -64.5t60 -30q43 0 71 44t28 132h92q0 -123 -52.5 -198.5t-146.5 -75.5q-49 0 -87 29.5t-57.5 64.5t-47 64.5t-60.5 29.5q-43 0 -70.5 -44t-27.5 -132h-92z" />
<glyph unicode="&#xd6;" horiz-adv-x="1566" d="M104 682q0 305 189.5 506t488.5 201t489.5 -201t190.5 -506t-190.5 -506t-489.5 -201t-488.5 201t-189.5 506zM281 682q0 -242 137 -398.5t364 -156.5q225 0 364.5 156.5t139.5 398.5t-139 398.5t-365 156.5q-227 0 -364 -155.5t-137 -399.5zM475 1583q0 39 27.5 66.5 t68.5 27.5q39 0 67 -27.5t28 -66.5t-28 -66.5t-67 -27.5t-67.5 27.5t-28.5 66.5zM899 1583q0 39 27.5 66.5t66.5 27.5q41 0 69 -27.5t28 -66.5t-29 -66.5t-68 -27.5t-66.5 27.5t-27.5 66.5z" />
<glyph unicode="&#xd7;" horiz-adv-x="1021" d="M131 379l305 305l-305 305l76 76l303 -305l305 305l76 -76l-303 -305l303 -305l-76 -76l-305 305l-303 -305z" />
<glyph unicode="&#xd8;" horiz-adv-x="1566" d="M104 682q0 305 189.5 506t488.5 201q188 0 342 -86l43 63h138l-86 -129q115 -96 179 -240.5t64 -314.5q0 -305 -190.5 -506t-489.5 -201q-197 0 -352 93l-45 -68h-137l90 133q-233 201 -234 549zM281 682q0 -256 149 -412l606 901q-115 66 -254 66q-227 0 -364 -155.5 t-137 -399.5zM518 199q112 -72 264 -72q225 0 364.5 156.5t139.5 398.5q0 264 -160 420z" />
<glyph unicode="&#xd9;" horiz-adv-x="1435" d="M160 530v836h172v-831q0 -190 99 -299t285.5 -109t287 108.5t100.5 299.5v831h172v-834q0 -260 -143.5 -408.5t-415.5 -148.5q-270 0 -413.5 148.5t-143.5 406.5zM393 1786h160l303 -295h-117z" />
<glyph unicode="&#xda;" horiz-adv-x="1435" d="M160 530v836h172v-831q0 -190 99 -299t285.5 -109t287 108.5t100.5 299.5v831h172v-834q0 -260 -143.5 -408.5t-415.5 -148.5q-270 0 -413.5 148.5t-143.5 406.5zM582 1491l303 295h159l-346 -295h-116z" />
<glyph unicode="&#xdb;" horiz-adv-x="1435" d="M160 530v836h172v-831q0 -190 99 -299t285.5 -109t287 108.5t100.5 299.5v831h172v-834q0 -260 -143.5 -408.5t-415.5 -148.5q-270 0 -413.5 148.5t-143.5 406.5zM457 1491l194 295h148l200 -295h-104l-170 217l-164 -217h-104z" />
<glyph unicode="&#xdc;" horiz-adv-x="1435" d="M160 530v836h172v-831q0 -190 99 -299t285.5 -109t287 108.5t100.5 299.5v831h172v-834q0 -260 -143.5 -408.5t-415.5 -148.5q-270 0 -413.5 148.5t-143.5 406.5zM412 1583q0 39 27.5 66.5t68.5 27.5q39 0 66.5 -27.5t27.5 -66.5t-27.5 -66.5t-66.5 -27.5t-67.5 27.5 t-28.5 66.5zM836 1583q0 39 27.5 66.5t66.5 27.5q41 0 68.5 -27.5t27.5 -66.5t-28.5 -66.5t-67.5 -27.5t-66.5 27.5t-27.5 66.5z" />
<glyph unicode="&#xdd;" horiz-adv-x="1282" d="M18 1366h199l424 -635l424 635h199l-537 -788v-578h-170v578zM514 1491l303 295h160l-346 -295h-117z" />
<glyph unicode="&#xde;" horiz-adv-x="1202" d="M160 0v1366h170v-244h379q199 0 313.5 -118.5t114.5 -294.5q0 -174 -116 -292t-312 -118h-379v-299h-170zM330 451h358q121 0 197 71.5t76 186t-76 188.5t-197 74h-358v-520z" />
<glyph unicode="&#xdf;" horiz-adv-x="1222" d="M156 0v1022q0 156 106.5 260t282.5 104q147 0 252.5 -70.5t105.5 -187.5q0 -61 -31.5 -109t-76.5 -79l-90 -59q-46 -29 -77.5 -67t-31.5 -83q0 -57 60.5 -90t146.5 -52.5t173 -46t147.5 -93.5t60.5 -173q0 -127 -99.5 -214t-281.5 -87q-135 0 -219 41t-162 119l78 107 q45 -61 125 -100.5t178 -39.5q113 0 172 49.5t59 120.5q0 66 -60.5 104t-146.5 58.5t-173 47t-147.5 88t-60.5 161.5q0 74 47.5 133.5t102.5 90t102 72.5t47 85q0 63 -61 100t-141 37q-100 0 -167 -62.5t-67 -164.5v-1022h-153z" />
<glyph unicode="&#xe0;" horiz-adv-x="1081" d="M100 303q0 158 102.5 242t241.5 84q209 0 328 -133v178q0 96 -69.5 151.5t-180.5 55.5q-178 0 -303 -138l-72 107q158 164 396 164q170 0 276.5 -82t106.5 -252v-680h-154v113q-121 -137 -328 -138q-135 0 -239.5 88.5t-104.5 239.5zM217 1434h160l303 -295h-117z M256 303q0 -96 68.5 -156.5t177.5 -60.5q182 0 270 123v188q-90 121 -270 121q-109 0 -177.5 -60.5t-68.5 -154.5z" />
<glyph unicode="&#xe1;" horiz-adv-x="1081" d="M100 303q0 158 102.5 242t241.5 84q209 0 328 -133v178q0 96 -69.5 151.5t-180.5 55.5q-178 0 -303 -138l-72 107q158 164 396 164q170 0 276.5 -82t106.5 -252v-680h-154v113q-121 -137 -328 -138q-135 0 -239.5 88.5t-104.5 239.5zM256 303q0 -96 68.5 -156.5 t177.5 -60.5q182 0 270 123v188q-90 121 -270 121q-109 0 -177.5 -60.5t-68.5 -154.5zM412 1139l303 295h159l-346 -295h-116z" />
<glyph unicode="&#xe2;" horiz-adv-x="1081" d="M100 303q0 158 102.5 242t241.5 84q209 0 328 -133v178q0 96 -69.5 151.5t-180.5 55.5q-178 0 -303 -138l-72 107q158 164 396 164q170 0 276.5 -82t106.5 -252v-680h-154v113q-121 -137 -328 -138q-135 0 -239.5 88.5t-104.5 239.5zM256 303q0 -96 68.5 -156.5 t177.5 -60.5q182 0 270 123v188q-90 121 -270 121q-109 0 -177.5 -60.5t-68.5 -154.5zM279 1139l194 295h148l200 -295h-104l-170 217l-164 -217h-104z" />
<glyph unicode="&#xe3;" horiz-adv-x="1081" d="M100 303q0 158 102.5 242t241.5 84q209 0 328 -133v178q0 96 -69.5 151.5t-180.5 55.5q-178 0 -303 -138l-72 107q158 164 396 164q170 0 276.5 -82t106.5 -252v-680h-154v113q-121 -137 -328 -138q-135 0 -239.5 88.5t-104.5 239.5zM223 1147q0 123 52.5 198.5 t146.5 75.5q49 0 87 -29.5t57.5 -64.5t47 -64.5t60.5 -29.5q43 0 70.5 44t27.5 132h92q0 -123 -52 -198.5t-146 -75.5q-49 0 -87 29.5t-57.5 64.5t-47.5 64.5t-60 29.5q-43 0 -71 -44t-28 -132h-92zM256 303q0 -96 68.5 -156.5t177.5 -60.5q182 0 270 123v188 q-90 121 -270 121q-109 0 -177.5 -60.5t-68.5 -154.5z" />
<glyph unicode="&#xe4;" horiz-adv-x="1081" d="M100 303q0 158 102.5 242t241.5 84q209 0 328 -133v178q0 96 -69.5 151.5t-180.5 55.5q-178 0 -303 -138l-72 107q158 164 396 164q170 0 276.5 -82t106.5 -252v-680h-154v113q-121 -137 -328 -138q-135 0 -239.5 88.5t-104.5 239.5zM233 1237q0 39 28 66.5t69 27.5 q39 0 66.5 -27.5t27.5 -66.5t-27.5 -66.5t-66.5 -27.5t-68 27.5t-29 66.5zM256 303q0 -96 68.5 -156.5t177.5 -60.5q182 0 270 123v188q-90 121 -270 121q-109 0 -177.5 -60.5t-68.5 -154.5zM657 1237q0 39 28 66.5t67 27.5q41 0 68.5 -27.5t27.5 -66.5t-28.5 -66.5 t-67.5 -27.5t-67 27.5t-28 66.5z" />
<glyph unicode="&#xe5;" horiz-adv-x="1081" d="M100 303q0 158 102.5 242t241.5 84q209 0 328 -133v178q0 96 -69.5 151.5t-180.5 55.5q-178 0 -303 -138l-72 107q158 164 396 164q170 0 276.5 -82t106.5 -252v-680h-154v113q-121 -137 -328 -138q-135 0 -239.5 88.5t-104.5 239.5zM256 303q0 -96 68.5 -156.5 t177.5 -60.5q182 0 270 123v188q-90 121 -270 121q-109 0 -177.5 -60.5t-68.5 -154.5zM342 1323q0 82 60.5 142.5t142.5 60.5t140 -59.5t58 -143.5t-58 -143.5t-140 -59.5t-142.5 60.5t-60.5 142.5zM424 1323q0 -49 35 -85t86 -36q49 0 84 36t35 85t-35 85t-84 36 q-51 0 -86 -36t-35 -85z" />
<glyph unicode="&#xe6;" horiz-adv-x="1820" d="M100 303q0 154 100.5 240t243.5 86q209 0 328 -131v176q0 96 -69.5 151.5t-180.5 55.5q-178 0 -303 -138l-72 107q158 164 396 164q287 0 336 -217q123 217 378 217q215 0 342 -150.5t127 -380.5v-39h-798q10 -145 105 -241.5t249 -96.5q186 0 307 125l74 -102 q-158 -154 -393 -154q-262 0 -410 205q-145 -205 -407 -205q-141 0 -247 88.5t-106 239.5zM256 303q0 -96 68.5 -156.5t177.5 -60.5q205 0 301 174q-31 72 -31 133q-90 125 -270 125q-109 0 -177.5 -60.5t-68.5 -154.5zM926 559h649q-2 125 -86 226.5t-240 101.5 q-147 0 -232 -100.5t-91 -227.5z" />
<glyph unicode="&#xe7;" horiz-adv-x="1015" d="M96 496q0 223 137.5 370.5t356.5 147.5q229 0 362 -172l-102 -92q-92 127 -252 127q-154 0 -248 -107.5t-94 -273.5q0 -168 94 -275.5t248 -107.5q156 0 252 129l102 -95q-119 -156 -323 -170l-33 -86q29 23 76 23q59 0 97 -38t38 -99q0 -74 -60.5 -119t-152.5 -45 q-131 0 -207 61l39 78q74 -59 164 -59q53 0 89 22.5t36 63.5q0 71 -74 71h-2q-49 0 -78 -34l-67 39l45 125q-199 16 -321 161.5t-122 354.5z" />
<glyph unicode="&#xe8;" horiz-adv-x="1153" d="M96 496q0 217 139.5 367.5t348.5 150.5q219 0 347 -150.5t128 -380.5v-39h-799q10 -145 105.5 -243.5t248.5 -98.5q184 0 308 127l73 -100q-157 -154 -393 -154q-223 0 -364.5 144.5t-141.5 376.5zM258 559h649q-2 125 -86 226.5t-239 101.5q-147 0 -232.5 -100.5 t-91.5 -227.5zM258 1434h160l303 -295h-117z" />
<glyph unicode="&#xe9;" horiz-adv-x="1153" d="M96 496q0 217 139.5 367.5t348.5 150.5q219 0 347 -150.5t128 -380.5v-39h-799q10 -145 105.5 -243.5t248.5 -98.5q184 0 308 127l73 -100q-157 -154 -393 -154q-223 0 -364.5 144.5t-141.5 376.5zM258 559h649q-2 125 -86 226.5t-239 101.5q-147 0 -232.5 -100.5 t-91.5 -227.5zM451 1139l303 295h159l-346 -295h-116z" />
<glyph unicode="&#xea;" horiz-adv-x="1153" d="M96 496q0 217 139.5 367.5t348.5 150.5q219 0 347 -150.5t128 -380.5v-39h-799q10 -145 105.5 -243.5t248.5 -98.5q184 0 308 127l73 -100q-157 -154 -393 -154q-223 0 -364.5 144.5t-141.5 376.5zM258 559h649q-2 125 -86 226.5t-239 101.5q-147 0 -232.5 -100.5 t-91.5 -227.5zM315 1139l195 295h147l201 -295h-104l-170 217l-164 -217h-105z" />
<glyph unicode="&#xeb;" horiz-adv-x="1153" d="M96 496q0 217 139.5 367.5t348.5 150.5q219 0 347 -150.5t128 -380.5v-39h-799q10 -145 105.5 -243.5t248.5 -98.5q184 0 308 127l73 -100q-157 -154 -393 -154q-223 0 -364.5 144.5t-141.5 376.5zM258 559h649q-2 125 -86 226.5t-239 101.5q-147 0 -232.5 -100.5 t-91.5 -227.5zM279 1237q0 39 27.5 66.5t68.5 27.5q39 0 66.5 -27.5t27.5 -66.5t-27.5 -66.5t-66.5 -27.5t-67.5 27.5t-28.5 66.5zM702 1237q0 39 28 66.5t67 27.5q41 0 68.5 -27.5t27.5 -66.5t-28.5 -66.5t-67.5 -27.5t-67 27.5t-28 66.5z" />
<glyph unicode="&#xec;" horiz-adv-x="460" d="M-98 1434h159l304 -295h-117zM154 0v989h153v-989h-153z" />
<glyph unicode="&#xed;" horiz-adv-x="460" d="M96 1139l303 295h160l-346 -295h-117zM154 0v989h153v-989h-153z" />
<glyph unicode="&#xee;" horiz-adv-x="460" d="M-39 1139l195 295h147l201 -295h-105l-170 217l-163 -217h-105zM154 0v989h153v-989h-153z" />
<glyph unicode="&#xef;" horiz-adv-x="460" d="M-76 1237q0 39 28 66.5t68 27.5q39 0 67 -27.5t28 -66.5t-28 -66.5t-66.5 -27.5t-67.5 27.5t-29 66.5zM154 0v989h153v-989h-153zM348 1237q0 39 27.5 66.5t66.5 27.5q41 0 69 -27.5t28 -66.5t-29 -66.5t-68 -27.5t-66.5 27.5t-27.5 66.5z" />
<glyph unicode="&#xf0;" d="M96 479q0 217 127 359.5t324 142.5q201 0 323 -180q-102 184 -327 348l-293 -131l-37 86l242 106l-154 99l84 127q137 -84 229 -156l222 98l34 -84l-176 -77q381 -324 381 -711q0 -233 -133 -382t-356 -149q-219 0 -354.5 143.5t-135.5 360.5zM258 479q0 -154 88 -260 t239.5 -106t239.5 106.5t88 259.5q0 152 -88 258.5t-239.5 106.5t-239.5 -106.5t-88 -258.5z" />
<glyph unicode="&#xf1;" horiz-adv-x="1130" d="M160 0v989h153v-143q57 70 153.5 119t201.5 49q313 0 313 -320v-694h-152v647q0 125 -57 177.5t-166 52.5q-86 0 -166 -45.5t-127 -108.5v-723h-153zM246 1147q0 123 52 198.5t146 75.5q49 0 87 -29.5t57.5 -64.5t47.5 -64.5t60 -29.5q43 0 71 44t28 132h92 q0 -123 -52.5 -198.5t-146.5 -75.5q-49 0 -87 29.5t-57.5 64.5t-47 64.5t-60.5 29.5q-43 0 -70.5 -44t-27.5 -132h-92z" />
<glyph unicode="&#xf2;" d="M96 495.5q0 221.5 134.5 370t355.5 148.5t355 -148.5t134 -370t-134 -371t-355 -149.5t-355.5 149.5t-134.5 371zM258 495.5q0 -159.5 88 -271t239.5 -111.5t239.5 111.5t88 271t-88 270.5t-239.5 111t-239.5 -111t-88 -270.5zM258 1434h160l303 -295h-117z" />
<glyph unicode="&#xf3;" d="M96 495.5q0 221.5 134.5 370t355.5 148.5t355 -148.5t134 -370t-134 -371t-355 -149.5t-355.5 149.5t-134.5 371zM258 495.5q0 -159.5 88 -271t239.5 -111.5t239.5 111.5t88 271t-88 270.5t-239.5 111t-239.5 -111t-88 -270.5zM451 1139l303 295h159l-346 -295h-116z" />
<glyph unicode="&#xf4;" d="M96 495.5q0 221.5 134.5 370t355.5 148.5t355 -148.5t134 -370t-134 -371t-355 -149.5t-355.5 149.5t-134.5 371zM258 495.5q0 -159.5 88 -271t239.5 -111.5t239.5 111.5t88 271t-88 270.5t-239.5 111t-239.5 -111t-88 -270.5zM317 1139l195 295h147l201 -295h-104 l-170 217l-164 -217h-105z" />
<glyph unicode="&#xf5;" d="M96 495.5q0 221.5 134.5 370t355.5 148.5t355 -148.5t134 -370t-134 -371t-355 -149.5t-355.5 149.5t-134.5 371zM258 495.5q0 -159.5 88 -271t239.5 -111.5t239.5 111.5t88 271t-88 270.5t-239.5 111t-239.5 -111t-88 -270.5zM266 1147q0 123 52.5 198.5t146.5 75.5 q49 0 87 -29.5t57.5 -64.5t47 -64.5t60.5 -29.5q43 0 70.5 44t27.5 132h92q0 -123 -52 -198.5t-146 -75.5q-49 0 -87 29.5t-57.5 64.5t-47.5 64.5t-60 29.5q-43 0 -71 -44t-28 -132h-92z" />
<glyph unicode="&#xf6;" d="M96 495.5q0 221.5 134.5 370t355.5 148.5t355 -148.5t134 -370t-134 -371t-355 -149.5t-355.5 149.5t-134.5 371zM258 495.5q0 -159.5 88 -271t239.5 -111.5t239.5 111.5t88 271t-88 270.5t-239.5 111t-239.5 -111t-88 -270.5zM279 1237q0 39 27.5 66.5t68.5 27.5 q39 0 66.5 -27.5t27.5 -66.5t-27.5 -66.5t-66.5 -27.5t-67.5 27.5t-28.5 66.5zM702 1237q0 39 28 66.5t67 27.5q41 0 68.5 -27.5t27.5 -66.5t-28.5 -66.5t-67.5 -27.5t-67 27.5t-28 66.5z" />
<glyph unicode="&#xf7;" horiz-adv-x="1046" d="M59 637v106h928v-106h-928zM430 295q0 39 27.5 66.5t66.5 27.5t66.5 -27.5t27.5 -66.5t-27.5 -66.5t-66.5 -27.5t-66.5 27.5t-27.5 66.5zM430 1079q0 39 27.5 65.5t66.5 26.5t66.5 -26.5t27.5 -65.5t-27.5 -67.5t-66.5 -28.5t-66.5 28.5t-27.5 67.5z" />
<glyph unicode="&#xf8;" d="M96 496q0 221 134.5 369.5t355.5 148.5q162 0 280 -84l47 59h113l-92 -117q141 -147 141 -376q0 -221 -134 -371t-355 -150q-170 0 -291 93l-53 -68h-111l98 125q-133 145 -133 371zM258 496q0 -147 70 -248l446 567q-78 61 -188 62q-152 0 -240 -110.5t-88 -270.5z M385 182q82 -69 201 -69q152 0 239.5 111.5t87.5 271.5q0 152 -77 254z" />
<glyph unicode="&#xf9;" horiz-adv-x="1128" d="M154 291v698h153v-651q0 -123 57.5 -174t165.5 -51q86 0 166 43t125 106v727h154v-989h-154v139q-61 -70 -154.5 -117t-197.5 -47q-315 0 -315 316zM242 1434h159l304 -295h-117z" />
<glyph unicode="&#xfa;" horiz-adv-x="1128" d="M154 291v698h153v-651q0 -123 57.5 -174t165.5 -51q86 0 166 43t125 106v727h154v-989h-154v139q-61 -70 -154.5 -117t-197.5 -47q-315 0 -315 316zM432 1139l303 295h160l-346 -295h-117z" />
<glyph unicode="&#xfb;" horiz-adv-x="1128" d="M154 291v698h153v-651q0 -123 57.5 -174t165.5 -51q86 0 166 43t125 106v727h154v-989h-154v139q-61 -70 -154.5 -117t-197.5 -47q-315 0 -315 316zM295 1139l194 295h148l201 -295h-105l-170 217l-164 -217h-104z" />
<glyph unicode="&#xfc;" horiz-adv-x="1128" d="M154 291v698h153v-651q0 -123 57.5 -174t165.5 -51q86 0 166 43t125 106v727h154v-989h-154v139q-61 -70 -154.5 -117t-197.5 -47q-315 0 -315 316zM264 1237q0 39 27.5 66.5t68.5 27.5q39 0 67 -27.5t28 -66.5t-28 -66.5t-66.5 -27.5t-67.5 27.5t-29 66.5zM688 1237 q0 39 27.5 66.5t66.5 27.5q41 0 69 -27.5t28 -66.5t-29 -66.5t-68 -27.5t-66.5 27.5t-27.5 66.5z" />
<glyph unicode="&#xfd;" horiz-adv-x="1003" d="M6 989h168l328 -811l329 811h166l-495 -1190q-82 -197 -291 -200q-64 0 -111 14l23 139q37 -16 84 -16q53 0 88 22.5t59 81.5l66 150zM369 1139l303 295h159l-346 -295h-116z" />
<glyph unicode="&#xfe;" d="M154 -377v1743h153v-524q55 78 143.5 125t190.5 47q197 0 318.5 -140.5t121.5 -378t-121.5 -379t-318.5 -141.5q-203 0 -334 175v-527h-153zM307 272q41 -68 124 -113.5t171 -45.5q145 0 231.5 107.5t86.5 275.5t-86 274.5t-232 106.5q-88 0 -171 -46.5t-124 -111.5v-447 z" />
<glyph unicode="&#xff;" horiz-adv-x="1003" d="M6 989h168l328 -811l329 811h166l-495 -1190q-82 -197 -291 -200q-64 0 -111 14l23 139q37 -16 84 -16q53 0 88 22.5t59 81.5l66 150zM195 1237q0 39 27.5 66.5t68.5 27.5q39 0 66.5 -27.5t27.5 -66.5t-27.5 -66.5t-66.5 -27.5t-67.5 27.5t-28.5 66.5zM618 1237 q0 39 28 66.5t67 27.5q41 0 68.5 -27.5t27.5 -66.5t-28.5 -66.5t-67.5 -27.5t-67 27.5t-28 66.5z" />
<glyph unicode="&#x152;" horiz-adv-x="2263" d="M104 682q0 305 184.5 504.5t479.5 199.5q150 0 283 -69.5t206 -198.5v248h895v-152h-725v-440h711v-151h-711v-471h725v-152h-895v248q-74 -131 -206.5 -202t-282.5 -71q-295 0 -479.5 201t-184.5 506zM281 682q0 -242 138 -398.5t369 -156.5q160 0 285 85t184 247v448 q-59 160 -183 244t-286 84q-231 0 -369 -154.5t-138 -398.5z" />
<glyph unicode="&#x153;" horiz-adv-x="1970" d="M96 495.5q0 221.5 134.5 370t355.5 148.5q86 0 159.5 -29t121.5 -75t78 -89t50 -90q45 106 146.5 194.5t259.5 88.5q219 0 347 -150.5t128 -380.5v-39h-799q10 -145 105.5 -243.5t249.5 -98.5q184 0 307 127l73 -100q-158 -154 -393 -154q-170 0 -272.5 85t-153.5 198 q-127 -283 -407 -283q-221 0 -355.5 149.5t-134.5 371zM258 496q0 -164 89 -274.5t238.5 -110.5t238.5 110.5t89 274.5q0 162 -89 271.5t-238.5 109.5t-238.5 -110t-89 -271zM1075 559h651q-4 125 -88 226.5t-237 101.5q-147 0 -233.5 -100.5t-92.5 -227.5z" />
<glyph unicode="&#x178;" horiz-adv-x="1282" d="M18 1366h199l424 -635l424 635h199l-537 -788v-578h-170v578zM340 1583q0 39 27.5 66.5t68.5 27.5q39 0 66.5 -27.5t27.5 -66.5t-27.5 -66.5t-66.5 -27.5t-67.5 27.5t-28.5 66.5zM764 1583q0 39 27.5 66.5t66.5 27.5q41 0 68.5 -27.5t27.5 -66.5t-28.5 -66.5t-67.5 -27.5 t-66.5 27.5t-27.5 66.5z" />
<glyph unicode="&#x2c6;" horiz-adv-x="542" d="M0 1139l195 295h147l201 -295h-105l-170 217l-164 -217h-104z" />
<glyph unicode="&#x2cb;" horiz-adv-x="462" d="M0 1434h160l303 -295h-117z" />
<glyph unicode="&#x2dc;" horiz-adv-x="641" d="M0 1147q0 123 52 198.5t147 75.5q49 0 87 -29.5t57 -64.5t47 -64.5t61 -29.5q43 0 70.5 44t27.5 132h92q0 -123 -52.5 -198.5t-146.5 -75.5q-49 0 -87 29.5t-57 64.5t-47 64.5t-61 29.5q-43 0 -70.5 -44t-27.5 -132h-92z" />
<glyph unicode="&#x3bc;" horiz-adv-x="1128" d="M154 -377v1366h153v-651q0 -125 57.5 -177t165.5 -52q84 0 165 45t126 108v727h154v-989h-154v139q-61 -70 -154.5 -117t-197.5 -47q-94 0 -162 29v-381h-153z" />
<glyph unicode="&#x2000;" horiz-adv-x="911" />
<glyph unicode="&#x2001;" horiz-adv-x="1823" />
<glyph unicode="&#x2002;" horiz-adv-x="911" />
<glyph unicode="&#x2003;" horiz-adv-x="1823" />
<glyph unicode="&#x2004;" horiz-adv-x="607" />
<glyph unicode="&#x2005;" horiz-adv-x="455" />
<glyph unicode="&#x2006;" horiz-adv-x="303" />
<glyph unicode="&#x2007;" horiz-adv-x="303" />
<glyph unicode="&#x2008;" horiz-adv-x="227" />
<glyph unicode="&#x2009;" horiz-adv-x="364" />
<glyph unicode="&#x200a;" horiz-adv-x="101" />
<glyph unicode="&#x2010;" horiz-adv-x="614" d="M61 428v135h492v-135h-492z" />
<glyph unicode="&#x2011;" horiz-adv-x="614" d="M61 428v135h492v-135h-492z" />
<glyph unicode="&#x2012;" horiz-adv-x="614" d="M61 428v135h492v-135h-492z" />
<glyph unicode="&#x2013;" horiz-adv-x="1214" d="M61 428v135h1092v-135h-1092z" />
<glyph unicode="&#x2014;" horiz-adv-x="1705" d="M61 428v135h1584v-135h-1584z" />
<glyph unicode="&#x2018;" horiz-adv-x="471" d="M98 1079q0 90 46 173t118 134l78 -61q-49 -33 -88 -87t-45 -103q2 0 12 2t17 2q41 0 69.5 -30t28.5 -75q0 -47 -32 -78.5t-77 -31.5q-53 0 -90 41.5t-37 113.5z" />
<glyph unicode="&#x2019;" horiz-adv-x="471" d="M117 985q49 33 88 87t45 104q-8 -4 -29 -5q-41 0 -69.5 30t-28.5 75t31.5 77.5t76.5 32.5q55 0 92 -41.5t37 -113.5q0 -90 -46 -173t-119 -136z" />
<glyph unicode="&#x201a;" horiz-adv-x="471" d="M117 -197q51 33 89 87.5t44 103.5q-8 -4 -29 -4q-41 0 -69.5 29.5t-28.5 74.5t31.5 78t76.5 33q55 0 92 -42t37 -114q0 -90 -46 -173t-119 -136z" />
<glyph unicode="&#x201c;" horiz-adv-x="798" d="M111 1079q0 90 46 173t119 134l76 -61q-49 -33 -87 -87t-44 -103l10 2q10 2 17 2q43 0 71.5 -30t28.5 -75q0 -47 -32.5 -78.5t-77.5 -31.5q-53 0 -90 41.5t-37 113.5zM438 1079q0 90 46 173t120 134l76 -61q-49 -33 -87 -87t-44 -103q2 0 12 2t14 2q43 0 72 -30t29 -75 q0 -47 -33 -78.5t-78 -31.5q-53 0 -90 41.5t-37 113.5z" />
<glyph unicode="&#x201d;" horiz-adv-x="798" d="M117 985q49 33 88 87t45 104q-8 -4 -29 -5q-41 0 -69.5 30t-28.5 75t31.5 77.5t76.5 32.5q55 0 92 -41.5t37 -113.5q0 -90 -46 -173t-119 -136zM446 985q49 33 87 87t45 104q-4 -4 -27 -5q-43 0 -71.5 30t-28.5 75t32.5 77.5t77.5 32.5q53 0 90 -41.5t37 -113.5 q0 -90 -46 -173t-120 -136z" />
<glyph unicode="&#x201e;" horiz-adv-x="798" d="M117 -197q51 33 89 87.5t44 103.5q-8 -4 -29 -4q-41 0 -69.5 29.5t-28.5 74.5t31.5 78t76.5 33q55 0 92 -42t37 -114q0 -90 -46 -173t-119 -136zM446 -197q49 33 87 87.5t45 103.5q-4 -4 -27 -4q-43 0 -71.5 29.5t-28.5 74.5t32.5 78t77.5 33q53 0 90 -42t37 -114 q0 -90 -46 -173t-120 -136z" />
<glyph unicode="&#x2022;" horiz-adv-x="733" d="M147 496q0 90 66 155.5t156 65.5t155.5 -65.5t65.5 -155.5t-65.5 -155t-155.5 -65t-156 65t-66 155z" />
<glyph unicode="&#x2026;" horiz-adv-x="1415" d="M123 92q0 47 32.5 80t80 33t80 -33t32.5 -80q0 -45 -33.5 -78.5t-79 -33.5t-79 33.5t-33.5 78.5zM594 92q0 47 32.5 80t80 33t80 -33t32.5 -80q0 -45 -33.5 -78.5t-78.5 -33.5t-79 33.5t-34 78.5zM1067 92q0 47 34 80t79 33t77.5 -33t32.5 -80q0 -45 -32.5 -78.5 t-77.5 -33.5t-79 33.5t-34 78.5z" />
<glyph unicode="&#x202f;" horiz-adv-x="364" />
<glyph unicode="&#x2039;" horiz-adv-x="604" d="M61 498l328 362h154l-328 -362l328 -369h-154z" />
<glyph unicode="&#x203a;" horiz-adv-x="604" d="M61 129l328 369l-328 362h154l328 -362l-328 -369h-154z" />
<glyph unicode="&#x203e;" horiz-adv-x="743" d="M0 1210v99h743v-99h-743z" />
<glyph unicode="&#x205f;" horiz-adv-x="455" />
<glyph unicode="&#x20ac;" horiz-adv-x="1423" d="M63 485v107h91q-4 57 -4 90t4 94h-91v109h113q61 229 245.5 366.5t430.5 137.5q330 0 518 -271l-141 -80q-59 90 -160.5 144.5t-216.5 54.5q-174 0 -307 -95t-189 -257h619v-109h-643q-6 -47 -6 -94t6 -90h643v-107h-619q53 -164 187.5 -261t308.5 -97q115 0 216 55.5 t161 143.5l143 -78q-198 -273 -520 -273q-248 0 -433.5 138.5t-244.5 371.5h-111z" />
<glyph unicode="&#x2122;" horiz-adv-x="929" d="M35 1313v53h311v-53h-127v-398h-57v398h-127zM420 915v451h88l131 -328l131 328h88v-451h-57v373l-154 -373h-16l-154 373v-373h-57z" />
<glyph unicode="&#x2219;" horiz-adv-x="473" d="M123 502q0 45 33.5 77.5t79 32.5t79 -32.5t33.5 -77.5q0 -47 -32.5 -80t-80 -33t-80 33t-32.5 80z" />
<glyph unicode="&#x25fc;" horiz-adv-x="990" d="M0 990h990v-990h-990v990z" />
<glyph unicode="&#xe000;" horiz-adv-x="990" d="M0 990h990v-990h-990v990z" />
<glyph unicode="&#xfb01;" horiz-adv-x="1042" d="M33 854v135h164v76q0 152 78.5 236.5t207.5 84.5q92 0 152 -32l-39 -117q-39 23 -88 23q-158 0 -158 -195v-76h201v-135h-201v-854h-153v854h-164zM709 1233q0 43 30.5 73.5t73.5 30.5t72.5 -30.5t29.5 -73.5t-29.5 -73t-72.5 -30t-73.5 30t-30.5 73zM735 0v989h154v-989 h-154z" />
<glyph unicode="&#xfb02;" horiz-adv-x="1042" d="M33 854v135h164v76q0 152 78.5 236.5t207.5 84.5q92 0 152 -32l-39 -117q-39 23 -88 23q-158 0 -158 -195v-76h201v-135h-201v-854h-153v854h-164zM735 0v1366h154v-1366h-154z" />
<glyph unicode="&#xfb03;" horiz-adv-x="1622" d="M33 854v135h164v76q0 152 77.5 236.5t208.5 84.5q127 0 209 -75l-63 -99q-53 47 -121 48q-158 0 -158 -195v-76h201v-135h-201v-854h-153v854h-164zM614 854v135h164v76q0 152 79 236.5t208 84.5q92 0 152 -32l-39 -117q-39 23 -88 23q-158 0 -158 -195v-76h201v-135 h-201v-854h-154v854h-164zM1288 1233q0 43 31 73.5t74 30.5t72.5 -30.5t29.5 -73.5t-29.5 -73t-72.5 -30t-74 30t-31 73zM1315 0v989h153v-989h-153z" />
<glyph unicode="&#xfb04;" horiz-adv-x="1622" d="M33 854v135h164v76q0 152 77.5 236.5t208.5 84.5q127 0 209 -75l-63 -99q-53 47 -121 48q-158 0 -158 -195v-76h201v-135h-201v-854h-153v854h-164zM614 854v135h164v76q0 152 79 236.5t208 84.5q92 0 152 -32l-39 -117q-39 23 -88 23q-158 0 -158 -195v-76h201v-135 h-201v-854h-154v854h-164zM1315 0v1366h153v-1366h-153z" />
<hkern g1="B" 	g2="T" 	k="35" />
<hkern g1="B" 	g2="V" 	k="27" />
<hkern g1="B" 	g2="W" 	k="20" />
<hkern g1="B" 	g2="Y,Yacute,Ydieresis" 	k="61" />
<hkern g1="B" 	g2="quotedbl,quotesingle,registered,quoteleft,quoteright,quotedblleft,quotedblright,trademark" 	k="20" />
<hkern g1="C,Ccedilla" 	g2="V" 	k="4" />
<hkern g1="C,Ccedilla" 	g2="W" 	k="6" />
<hkern g1="C,Ccedilla" 	g2="Y,Yacute,Ydieresis" 	k="33" />
<hkern g1="C,Ccedilla" 	g2="question" 	k="6" />
<hkern g1="C,Ccedilla" 	g2="A,Agrave,Aacute,Acircumflex,Atilde,Adieresis,Aring,AE" 	k="6" />
<hkern g1="D,O,Q,Eth,Ograve,Oacute,Ocircumflex,Otilde,Odieresis,Oslash,Thorn" 	g2="J" 	k="41" />
<hkern g1="D,O,Q,Eth,Ograve,Oacute,Ocircumflex,Otilde,Odieresis,Oslash,Thorn" 	g2="T" 	k="55" />
<hkern g1="D,O,Q,Eth,Ograve,Oacute,Ocircumflex,Otilde,Odieresis,Oslash,Thorn" 	g2="V" 	k="41" />
<hkern g1="D,O,Q,Eth,Ograve,Oacute,Ocircumflex,Otilde,Odieresis,Oslash,Thorn" 	g2="W" 	k="41" />
<hkern g1="D,O,Q,Eth,Ograve,Oacute,Ocircumflex,Otilde,Odieresis,Oslash,Thorn" 	g2="Y,Yacute,Ydieresis" 	k="82" />
<hkern g1="D,O,Q,Eth,Ograve,Oacute,Ocircumflex,Otilde,Odieresis,Oslash,Thorn" 	g2="question" 	k="33" />
<hkern g1="D,O,Q,Eth,Ograve,Oacute,Ocircumflex,Otilde,Odieresis,Oslash,Thorn" 	g2="quotedbl,quotesingle,registered,quoteleft,quoteright,quotedblleft,quotedblright,trademark" 	k="20" />
<hkern g1="D,O,Q,Eth,Ograve,Oacute,Ocircumflex,Otilde,Odieresis,Oslash,Thorn" 	g2="A,Agrave,Aacute,Acircumflex,Atilde,Adieresis,Aring,AE" 	k="76" />
<hkern g1="D,O,Q,Eth,Ograve,Oacute,Ocircumflex,Otilde,Odieresis,Oslash,Thorn" 	g2="X" 	k="61" />
<hkern g1="D,O,Q,Eth,Ograve,Oacute,Ocircumflex,Otilde,Odieresis,Oslash,Thorn" 	g2="Z" 	k="35" />
<hkern g1="D,O,Q,Eth,Ograve,Oacute,Ocircumflex,Otilde,Odieresis,Oslash,Thorn" 	g2="comma,period,quotesinglbase,quotedblbase,ellipsis" 	k="55" />
<hkern g1="F" 	g2="A,Agrave,Aacute,Acircumflex,Atilde,Adieresis,Aring,AE" 	k="74" />
<hkern g1="F" 	g2="J" 	k="121" />
<hkern g1="F" 	g2="ampersand" 	k="12" />
<hkern g1="F" 	g2="comma,period,quotesinglbase,quotedblbase,ellipsis" 	k="102" />
<hkern g1="G" 	g2="T" 	k="6" />
<hkern g1="G" 	g2="A,Agrave,Aacute,Acircumflex,Atilde,Adieresis,Aring,AE" 	k="6" />
<hkern g1="G" 	g2="X" 	k="6" />
<hkern g1="G" 	g2="V" 	k="12" />
<hkern g1="G" 	g2="W" 	k="6" />
<hkern g1="G" 	g2="Y,Yacute,Ydieresis" 	k="18" />
<hkern g1="G" 	g2="question" 	k="12" />
<hkern g1="K" 	g2="Y,Yacute,Ydieresis" 	k="43" />
<hkern g1="K" 	g2="C,G,O,Q,Ccedilla,Ograve,Oacute,Ocircumflex,Otilde,Odieresis,Oslash,OE" 	k="111" />
<hkern g1="K" 	g2="a,ae" 	k="35" />
<hkern g1="K" 	g2="c,d,e,g,o,q,ccedilla,eth,oslash,oe" 	k="70" />
<hkern g1="K" 	g2="f" 	k="53" />
<hkern g1="K" 	g2="t" 	k="80" />
<hkern g1="K" 	g2="u" 	k="41" />
<hkern g1="K" 	g2="v" 	k="123" />
<hkern g1="K" 	g2="w" 	k="82" />
<hkern g1="K" 	g2="x" 	k="53" />
<hkern g1="K" 	g2="y,yacute,ydieresis" 	k="123" />
<hkern g1="K" 	g2="hyphen,endash,emdash" 	k="102" />
<hkern g1="L" 	g2="T" 	k="205" />
<hkern g1="L" 	g2="ampersand" 	k="14" />
<hkern g1="L" 	g2="V" 	k="184" />
<hkern g1="L" 	g2="W" 	k="135" />
<hkern g1="L" 	g2="Y,Yacute,Ydieresis" 	k="252" />
<hkern g1="L" 	g2="question" 	k="233" />
<hkern g1="L" 	g2="quotedbl,quotesingle,registered,quoteleft,quoteright,quotedblleft,quotedblright,trademark" 	k="250" />
<hkern g1="L" 	g2="C,G,O,Q,Ccedilla,Ograve,Oacute,Ocircumflex,Otilde,Odieresis,Oslash,OE" 	k="70" />
<hkern g1="L" 	g2="a,ae" 	k="29" />
<hkern g1="L" 	g2="c,d,e,g,o,q,ccedilla,eth,oslash,oe" 	k="43" />
<hkern g1="L" 	g2="t" 	k="68" />
<hkern g1="L" 	g2="u" 	k="29" />
<hkern g1="L" 	g2="v" 	k="117" />
<hkern g1="L" 	g2="w" 	k="76" />
<hkern g1="L" 	g2="y,yacute,ydieresis" 	k="117" />
<hkern g1="L" 	g2="U,Ugrave,Uacute,Ucircumflex,Udieresis" 	k="55" />
<hkern g1="L" 	g2="asterisk" 	k="356" />
<hkern g1="P" 	g2="Y,Yacute,Ydieresis" 	k="6" />
<hkern g1="P" 	g2="A,Agrave,Aacute,Acircumflex,Atilde,Adieresis,Aring,AE" 	k="158" />
<hkern g1="P" 	g2="J" 	k="223" />
<hkern g1="P" 	g2="X" 	k="18" />
<hkern g1="P" 	g2="ampersand" 	k="53" />
<hkern g1="P" 	g2="comma,period,quotesinglbase,quotedblbase,ellipsis" 	k="193" />
<hkern g1="P" 	g2="a,ae" 	k="41" />
<hkern g1="P" 	g2="c,d,e,g,o,q,ccedilla,eth,oslash,oe" 	k="27" />
<hkern g1="P" 	g2="hyphen,endash,emdash" 	k="70" />
<hkern g1="R" 	g2="T" 	k="20" />
<hkern g1="R" 	g2="V" 	k="20" />
<hkern g1="R" 	g2="Y,Yacute,Ydieresis" 	k="33" />
<hkern g1="R" 	g2="quotedbl,quotesingle,registered,quoteleft,quoteright,quotedblleft,quotedblright,trademark" 	k="6" />
<hkern g1="R" 	g2="ampersand" 	k="6" />
<hkern g1="R" 	g2="a,ae" 	k="41" />
<hkern g1="R" 	g2="c,d,e,g,o,q,ccedilla,eth,oslash,oe" 	k="61" />
<hkern g1="R" 	g2="s" 	k="12" />
<hkern g1="S" 	g2="T" 	k="12" />
<hkern g1="S" 	g2="Y,Yacute,Ydieresis" 	k="20" />
<hkern g1="S" 	g2="A,Agrave,Aacute,Acircumflex,Atilde,Adieresis,Aring,AE" 	k="20" />
<hkern g1="S" 	g2="t" 	k="35" />
<hkern g1="S" 	g2="v" 	k="12" />
<hkern g1="S" 	g2="w" 	k="6" />
<hkern g1="S" 	g2="x" 	k="27" />
<hkern g1="S" 	g2="y,yacute,ydieresis" 	k="12" />
<hkern g1="T" 	g2="C,G,O,Q,Ccedilla,Ograve,Oacute,Ocircumflex,Otilde,Odieresis,Oslash,OE" 	k="55" />
<hkern g1="T" 	g2="A,Agrave,Aacute,Acircumflex,Atilde,Adieresis,Aring,AE" 	k="137" />
<hkern g1="T" 	g2="J" 	k="170" />
<hkern g1="T" 	g2="ampersand" 	k="117" />
<hkern g1="T" 	g2="comma,period,quotesinglbase,quotedblbase,ellipsis" 	k="190" />
<hkern g1="T" 	g2="a,ae" 	k="195" />
<hkern g1="T" 	g2="c,d,e,g,o,q,ccedilla,eth,oslash,oe" 	k="236" />
<hkern g1="T" 	g2="hyphen,endash,emdash" 	k="123" />
<hkern g1="T" 	g2="s" 	k="186" />
<hkern g1="T" 	g2="v" 	k="115" />
<hkern g1="T" 	g2="w" 	k="115" />
<hkern g1="T" 	g2="x" 	k="135" />
<hkern g1="T" 	g2="y,yacute,ydieresis" 	k="115" />
<hkern g1="T" 	g2="S" 	k="6" />
<hkern g1="T" 	g2="colon,semicolon" 	k="102" />
<hkern g1="T" 	g2="f" 	k="63" />
<hkern g1="T" 	g2="m,n,p,r,z" 	k="174" />
<hkern g1="T" 	g2="u" 	k="174" />
<hkern g1="J,U,Ugrave,Uacute,Ucircumflex,Udieresis" 	g2="A,Agrave,Aacute,Acircumflex,Atilde,Adieresis,Aring,AE" 	k="53" />
<hkern g1="J,U,Ugrave,Uacute,Ucircumflex,Udieresis" 	g2="J" 	k="25" />
<hkern g1="V" 	g2="comma,period,quotesinglbase,quotedblbase,ellipsis" 	k="184" />
<hkern g1="V" 	g2="A,Agrave,Aacute,Acircumflex,Atilde,Adieresis,Aring,AE" 	k="111" />
<hkern g1="V" 	g2="C,G,O,Q,Ccedilla,Ograve,Oacute,Ocircumflex,Otilde,Odieresis,Oslash,OE" 	k="41" />
<hkern g1="V" 	g2="J" 	k="190" />
<hkern g1="V" 	g2="ampersand" 	k="59" />
<hkern g1="V" 	g2="a,ae" 	k="129" />
<hkern g1="V" 	g2="c,d,e,g,o,q,ccedilla,eth,oslash,oe" 	k="123" />
<hkern g1="V" 	g2="f" 	k="47" />
<hkern g1="V" 	g2="m,n,p,r,z" 	k="86" />
<hkern g1="V" 	g2="s" 	k="80" />
<hkern g1="V" 	g2="t" 	k="27" />
<hkern g1="V" 	g2="u" 	k="86" />
<hkern g1="V" 	g2="v" 	k="27" />
<hkern g1="V" 	g2="w" 	k="12" />
<hkern g1="V" 	g2="x" 	k="47" />
<hkern g1="V" 	g2="y,yacute,ydieresis" 	k="12" />
<hkern g1="V" 	g2="hyphen,endash,emdash" 	k="109" />
<hkern g1="W" 	g2="comma,period,quotesinglbase,quotedblbase,ellipsis" 	k="137" />
<hkern g1="W" 	g2="A,Agrave,Aacute,Acircumflex,Atilde,Adieresis,Aring,AE" 	k="96" />
<hkern g1="W" 	g2="C,G,O,Q,Ccedilla,Ograve,Oacute,Ocircumflex,Otilde,Odieresis,Oslash,OE" 	k="41" />
<hkern g1="W" 	g2="J" 	k="78" />
<hkern g1="W" 	g2="ampersand" 	k="41" />
<hkern g1="W" 	g2="a,ae" 	k="82" />
<hkern g1="W" 	g2="c,d,e,g,o,q,ccedilla,eth,oslash,oe" 	k="82" />
<hkern g1="W" 	g2="f" 	k="27" />
<hkern g1="W" 	g2="m,n,p,r,z" 	k="61" />
<hkern g1="W" 	g2="s" 	k="39" />
<hkern g1="W" 	g2="t" 	k="27" />
<hkern g1="W" 	g2="u" 	k="61" />
<hkern g1="W" 	g2="v" 	k="6" />
<hkern g1="W" 	g2="x" 	k="47" />
<hkern g1="W" 	g2="y,yacute,ydieresis" 	k="6" />
<hkern g1="W" 	g2="hyphen,endash,emdash" 	k="68" />
<hkern g1="Y,Yacute,Ydieresis" 	g2="comma,period,quotesinglbase,quotedblbase,ellipsis" 	k="184" />
<hkern g1="Y,Yacute,Ydieresis" 	g2="A,Agrave,Aacute,Acircumflex,Atilde,Adieresis,Aring,AE" 	k="129" />
<hkern g1="Y,Yacute,Ydieresis" 	g2="C,G,O,Q,Ccedilla,Ograve,Oacute,Ocircumflex,Otilde,Odieresis,Oslash,OE" 	k="82" />
<hkern g1="Y,Yacute,Ydieresis" 	g2="J" 	k="231" />
<hkern g1="Y,Yacute,Ydieresis" 	g2="ampersand" 	k="123" />
<hkern g1="Y,Yacute,Ydieresis" 	g2="a,ae" 	k="248" />
<hkern g1="Y,Yacute,Ydieresis" 	g2="c,d,e,g,o,q,ccedilla,eth,oslash,oe" 	k="260" />
<hkern g1="Y,Yacute,Ydieresis" 	g2="f" 	k="100" />
<hkern g1="Y,Yacute,Ydieresis" 	g2="m,n,p,r,z" 	k="184" />
<hkern g1="Y,Yacute,Ydieresis" 	g2="s" 	k="205" />
<hkern g1="Y,Yacute,Ydieresis" 	g2="t" 	k="53" />
<hkern g1="Y,Yacute,Ydieresis" 	g2="u" 	k="184" />
<hkern g1="Y,Yacute,Ydieresis" 	g2="v" 	k="123" />
<hkern g1="Y,Yacute,Ydieresis" 	g2="w" 	k="123" />
<hkern g1="Y,Yacute,Ydieresis" 	g2="x" 	k="150" />
<hkern g1="Y,Yacute,Ydieresis" 	g2="y,yacute,ydieresis" 	k="123" />
<hkern g1="Y,Yacute,Ydieresis" 	g2="hyphen,endash,emdash" 	k="238" />
<hkern g1="Y,Yacute,Ydieresis" 	g2="S" 	k="41" />
<hkern g1="Y,Yacute,Ydieresis" 	g2="colon,semicolon" 	k="121" />
<hkern g1="Z" 	g2="C,G,O,Q,Ccedilla,Ograve,Oacute,Ocircumflex,Otilde,Odieresis,Oslash,OE" 	k="35" />
<hkern g1="a,h,m,n" 	g2="T" 	k="221" />
<hkern g1="a,h,m,n" 	g2="question" 	k="74" />
<hkern g1="a,h,m,n" 	g2="quotedbl,quotesingle,registered,quoteleft,quoteright,quotedblleft,quotedblright,trademark" 	k="12" />
<hkern g1="a,h,m,n" 	g2="Y,Yacute,Ydieresis" 	k="225" />
<hkern g1="a,h,m,n" 	g2="V" 	k="135" />
<hkern g1="a,h,m,n" 	g2="W" 	k="88" />
<hkern g1="ampersand" 	g2="T" 	k="152" />
<hkern g1="ampersand" 	g2="Y,Yacute,Ydieresis" 	k="186" />
<hkern g1="ampersand" 	g2="V" 	k="102" />
<hkern g1="ampersand" 	g2="W" 	k="98" />
<hkern g1="asterisk" 	g2="A,Agrave,Aacute,Acircumflex,Atilde,Adieresis,Aring,AE" 	k="207" />
<hkern g1="asterisk" 	g2="J" 	k="238" />
<hkern g1="b,o,p,oslash,thorn" 	g2="T" 	k="236" />
<hkern g1="b,o,p,oslash,thorn" 	g2="comma,period,quotesinglbase,quotedblbase,ellipsis" 	k="14" />
<hkern g1="b,o,p,oslash,thorn" 	g2="question" 	k="94" />
<hkern g1="b,o,p,oslash,thorn" 	g2="quotedbl,quotesingle,registered,quoteleft,quoteright,quotedblleft,quotedblright,trademark" 	k="20" />
<hkern g1="b,o,p,oslash,thorn" 	g2="Y,Yacute,Ydieresis" 	k="254" />
<hkern g1="b,o,p,oslash,thorn" 	g2="V" 	k="123" />
<hkern g1="b,o,p,oslash,thorn" 	g2="W" 	k="82" />
<hkern g1="b,o,p,oslash,thorn" 	g2="x" 	k="76" />
<hkern g1="c,cent,ccedilla" 	g2="T" 	k="166" />
<hkern g1="c,cent,ccedilla" 	g2="question" 	k="47" />
<hkern g1="c,cent,ccedilla" 	g2="quotedbl,quotesingle,registered,quoteleft,quoteright,quotedblleft,quotedblright,trademark" 	k="6" />
<hkern g1="c,cent,ccedilla" 	g2="Y,Yacute,Ydieresis" 	k="129" />
<hkern g1="c,cent,ccedilla" 	g2="V" 	k="74" />
<hkern g1="c,cent,ccedilla" 	g2="W" 	k="47" />
<hkern g1="colon,semicolon" 	g2="T" 	k="102" />
<hkern g1="colon,semicolon" 	g2="Y,Yacute,Ydieresis" 	k="121" />
<hkern g1="e,ae,oe" 	g2="T" 	k="207" />
<hkern g1="e,ae,oe" 	g2="comma,period,quotesinglbase,quotedblbase,ellipsis" 	k="14" />
<hkern g1="e,ae,oe" 	g2="question" 	k="74" />
<hkern g1="e,ae,oe" 	g2="quotedbl,quotesingle,registered,quoteleft,quoteright,quotedblleft,quotedblright,trademark" 	k="6" />
<hkern g1="e,ae,oe" 	g2="Y,Yacute,Ydieresis" 	k="225" />
<hkern g1="e,ae,oe" 	g2="V" 	k="109" />
<hkern g1="e,ae,oe" 	g2="W" 	k="82" />
<hkern g1="e,ae,oe" 	g2="asterisk" 	k="35" />
<hkern g1="eth" 	g2="comma,period,quotesinglbase,quotedblbase,ellipsis" 	k="14" />
<hkern g1="f" 	g2="T" 	k="-82" />
<hkern g1="f" 	g2="comma,period,quotesinglbase,quotedblbase,ellipsis" 	k="88" />
<hkern g1="f" 	g2="ampersand" 	k="6" />
<hkern g1="f" 	g2="question" 	k="-117" />
<hkern g1="f" 	g2="quotedbl,quotesingle,registered,quoteleft,quoteright,quotedblleft,quotedblright,trademark" 	k="-137" />
<hkern g1="f" 	g2="Y,Yacute,Ydieresis" 	k="-115" />
<hkern g1="f" 	g2="V" 	k="-129" />
<hkern g1="f" 	g2="W" 	k="-129" />
<hkern g1="f" 	g2="X" 	k="-82" />
<hkern g1="f" 	g2="Z" 	k="-82" />
<hkern g1="f" 	g2="asterisk" 	k="-137" />
<hkern g1="f" 	g2="parenright,bracketright,braceright" 	k="-152" />
<hkern g1="f" 	g2="exclam,B,D,E,F,H,I,K,L,M,N,P,R,Egrave,Eacute,Ecircumflex,Edieresis,Igrave,Iacute,Icircumflex,Idieresis,Eth,Ntilde" 	k="-82" />
<hkern g1="f" 	g2="S" 	k="-47" />
<hkern g1="f" 	g2="U,Ugrave,Uacute,Ucircumflex,Udieresis" 	k="-82" />
<hkern g1="g,q" 	g2="T" 	k="174" />
<hkern g1="g,q" 	g2="question" 	k="47" />
<hkern g1="g,q" 	g2="Y,Yacute,Ydieresis" 	k="184" />
<hkern g1="g,q" 	g2="V" 	k="86" />
<hkern g1="g,q" 	g2="W" 	k="61" />
<hkern g1="g,q" 	g2="j" 	k="-94" />
<hkern g1="hyphen,endash,emdash" 	g2="Y,Yacute,Ydieresis" 	k="223" />
<hkern g1="hyphen,endash,emdash" 	g2="V" 	k="109" />
<hkern g1="hyphen,endash,emdash" 	g2="W" 	k="68" />
<hkern g1="hyphen,endash,emdash" 	g2="X" 	k="88" />
<hkern g1="comma,period,quotesinglbase,quotedblbase,ellipsis" 	g2="c,d,e,g,o,q,ccedilla,eth,oslash,oe" 	k="14" />
<hkern g1="comma,period,quotesinglbase,quotedblbase,ellipsis" 	g2="Y,Yacute,Ydieresis" 	k="184" />
<hkern g1="comma,period,quotesinglbase,quotedblbase,ellipsis" 	g2="T" 	k="190" />
<hkern g1="comma,period,quotesinglbase,quotedblbase,ellipsis" 	g2="V" 	k="178" />
<hkern g1="comma,period,quotesinglbase,quotedblbase,ellipsis" 	g2="W" 	k="137" />
<hkern g1="comma,period,quotesinglbase,quotedblbase,ellipsis" 	g2="U,Ugrave,Uacute,Ucircumflex,Udieresis" 	k="61" />
<hkern g1="comma,period,quotesinglbase,quotedblbase,ellipsis" 	g2="f" 	k="47" />
<hkern g1="comma,period,quotesinglbase,quotedblbase,ellipsis" 	g2="t" 	k="47" />
<hkern g1="comma,period,quotesinglbase,quotedblbase,ellipsis" 	g2="v" 	k="137" />
<hkern g1="comma,period,quotesinglbase,quotedblbase,ellipsis" 	g2="w" 	k="90" />
<hkern g1="comma,period,quotesinglbase,quotedblbase,ellipsis" 	g2="y,yacute,ydieresis" 	k="117" />
<hkern g1="comma,period,quotesinglbase,quotedblbase,ellipsis" 	g2="one" 	k="160" />
<hkern g1="comma,period,quotesinglbase,quotedblbase,ellipsis" 	g2="zero,six" 	k="63" />
<hkern g1="comma,period,quotesinglbase,quotedblbase,ellipsis" 	g2="seven" 	k="135" />
<hkern g1="comma,period,quotesinglbase,quotedblbase,ellipsis" 	g2="quotedbl,quotesingle,registered,quoteleft,quoteright,quotedblleft,quotedblright,trademark" 	k="156" />
<hkern g1="comma,period,quotesinglbase,quotedblbase,ellipsis" 	g2="j" 	k="-82" />
<hkern g1="questiondown" 	g2="j" 	k="-328" />
<hkern g1="quotedbl,quotesingle,quoteleft,quoteright,quotedblleft,quotedblright" 	g2="A,Agrave,Aacute,Acircumflex,Atilde,Adieresis,Aring,AE" 	k="213" />
<hkern g1="quotedbl,quotesingle,quoteleft,quoteright,quotedblleft,quotedblright" 	g2="C,G,O,Q,Ccedilla,Ograve,Oacute,Ocircumflex,Otilde,Odieresis,Oslash,OE" 	k="6" />
<hkern g1="quotedbl,quotesingle,quoteleft,quoteright,quotedblleft,quotedblright" 	g2="s" 	k="61" />
<hkern g1="quotedbl,quotesingle,quoteleft,quoteright,quotedblleft,quotedblright" 	g2="J" 	k="188" />
<hkern g1="quotedbl,quotesingle,quoteleft,quoteright,quotedblleft,quotedblright" 	g2="comma,period,quotesinglbase,quotedblbase,ellipsis" 	k="156" />
<hkern g1="r" 	g2="Y,Yacute,Ydieresis" 	k="102" />
<hkern g1="r" 	g2="T" 	k="98" />
<hkern g1="r" 	g2="V" 	k="47" />
<hkern g1="r" 	g2="W" 	k="12" />
<hkern g1="r" 	g2="comma,period,quotesinglbase,quotedblbase,ellipsis" 	k="170" />
<hkern g1="r" 	g2="X" 	k="18" />
<hkern g1="s" 	g2="Y,Yacute,Ydieresis" 	k="190" />
<hkern g1="s" 	g2="T" 	k="180" />
<hkern g1="s" 	g2="V" 	k="88" />
<hkern g1="s" 	g2="W" 	k="80" />
<hkern g1="s" 	g2="quotedbl,quotesingle,registered,quoteleft,quoteright,quotedblleft,quotedblright,trademark" 	k="41" />
<hkern g1="s" 	g2="X" 	k="6" />
<hkern g1="s" 	g2="question" 	k="88" />
<hkern g1="t" 	g2="Y,Yacute,Ydieresis" 	k="68" />
<hkern g1="t" 	g2="T" 	k="106" />
<hkern g1="t" 	g2="V" 	k="53" />
<hkern g1="t" 	g2="W" 	k="27" />
<hkern g1="u,z" 	g2="Y,Yacute,Ydieresis" 	k="184" />
<hkern g1="u,z" 	g2="T" 	k="174" />
<hkern g1="u,z" 	g2="V" 	k="86" />
<hkern g1="u,z" 	g2="W" 	k="61" />
<hkern g1="u,z" 	g2="question" 	k="47" />
<hkern g1="v" 	g2="Y,Yacute,Ydieresis" 	k="123" />
<hkern g1="v" 	g2="T" 	k="115" />
<hkern g1="v" 	g2="V" 	k="27" />
<hkern g1="v" 	g2="W" 	k="6" />
<hkern g1="v" 	g2="A,Agrave,Aacute,Acircumflex,Atilde,Adieresis,Aring,AE" 	k="41" />
<hkern g1="v" 	g2="comma,period,quotesinglbase,quotedblbase,ellipsis" 	k="137" />
<hkern g1="v" 	g2="X" 	k="76" />
<hkern g1="w" 	g2="Y,Yacute,Ydieresis" 	k="123" />
<hkern g1="w" 	g2="T" 	k="115" />
<hkern g1="w" 	g2="V" 	k="12" />
<hkern g1="w" 	g2="A,Agrave,Aacute,Acircumflex,Atilde,Adieresis,Aring,AE" 	k="35" />
<hkern g1="w" 	g2="comma,period,quotesinglbase,quotedblbase,ellipsis" 	k="90" />
<hkern g1="w" 	g2="X" 	k="90" />
<hkern g1="y,yacute,ydieresis" 	g2="Y,Yacute,Ydieresis" 	k="123" />
<hkern g1="y,yacute,ydieresis" 	g2="T" 	k="115" />
<hkern g1="y,yacute,ydieresis" 	g2="V" 	k="12" />
<hkern g1="y,yacute,ydieresis" 	g2="W" 	k="6" />
<hkern g1="y,yacute,ydieresis" 	g2="A,Agrave,Aacute,Acircumflex,Atilde,Adieresis,Aring,AE" 	k="41" />
<hkern g1="y,yacute,ydieresis" 	g2="comma,period,quotesinglbase,quotedblbase,ellipsis" 	k="117" />
<hkern g1="y,yacute,ydieresis" 	g2="X" 	k="76" />
<hkern g1="y,yacute,ydieresis" 	g2="question" 	k="6" />
<hkern g1="X" 	g2="hyphen,endash,emdash" 	k="88" />
<hkern g1="X" 	g2="f" 	k="61" />
<hkern g1="X" 	g2="t" 	k="61" />
<hkern g1="X" 	g2="v" 	k="76" />
<hkern g1="X" 	g2="w" 	k="90" />
<hkern g1="X" 	g2="y,yacute,ydieresis" 	k="76" />
<hkern g1="X" 	g2="C,G,O,Q,Ccedilla,Ograve,Oacute,Ocircumflex,Otilde,Odieresis,Oslash,OE" 	k="61" />
<hkern g1="zero,nine" 	g2="comma,period,quotesinglbase,quotedblbase,ellipsis" 	k="63" />
<hkern g1="seven" 	g2="comma,period,quotesinglbase,quotedblbase,ellipsis" 	k="199" />
<hkern g1="x" 	g2="c,d,e,g,o,q,ccedilla,eth,oslash,oe" 	k="76" />
<hkern g1="x" 	g2="Y,Yacute,Ydieresis" 	k="150" />
<hkern g1="x" 	g2="T" 	k="135" />
<hkern g1="x" 	g2="V" 	k="47" />
<hkern g1="x" 	g2="W" 	k="47" />
<hkern g1="parenleft,bracketleft,braceleft" 	g2="j" 	k="-225" />
</font>
</defs></svg> 